309,268
347,324
350,409
393,505
414,588
478,624
486,624
483,623
439,584
407,521
410,459
413,401
409,352
425,316
309,268
347,324
350,409
393,505
414,588
478,624
486,624
483,623
439,584
407,521
410,459
413,401
409,352
425,316
267,621
296,567
306,502
304,435
292,374
309,321
304,291
293,278
291,279
316,293
398,306
449,314
446,314
464,306
472,289
500,271
483,255
471,243
429,234
382,230
369,228
332,231
291,236
266,240
837,244
122,245
308,245
296,245
197,246
176,244
209,242
282,240
373,240
459,237
483,243
496,269
524,331
526,438
514,545
493,622
497,622
486,622
447,622
449,622
441,623
447,604
456,521
454,444
442,377
447,327
465,297
454,287
445,288
439,294
446,299
510,298
483,291
475,280
582,268
656,254
683,242
662,235
660,233
745,233
736,235
708,237
996,239
858,241
543,241
576,241
630,240
647,240
616,239
627,237
634,235
615,232
636,234
650,253
649,305
631,405
696,514
735,610
762,624
759,623
765,624
776,624
769,623
716,575
671,492
679,421
702,359
660,314
638,289
571,280
573,283
573,290
557,295
550,295
550,288
546,276
542,262
504,248
501,237
494,230
461,228
444,227
432,229
437,232
787,237
799,240
386,241
462,240
481,239
483,239
477,238
486,236
517,231
524,231
539,231
533,239
538,276
557,346
529,442
574,542
571,618
591,623
583,623
568,623
560,575
552,502
537,433
499,370
463,319
447,287
439,275
414,281
376,297
344,310
321,317
309,315
296,303
285,286
299,267
296,248
303,235
314,228
297,225
326,227
541,231
827,237
203,243
337,246
345,248
338,248
332,248
343,248
350,246
364,242
348,239
334,244
335,269
325,328
292,429
354,530
338,613
346,623
327,622
326,623
339,616
354,556
360,484
331,409
334,351
349,308
383,282
389,275
359,282
367,294
403,304
416,307
421,302
419,289
462,272
462,256
477,241
477,231
480,225
499,225
505,227
490,232
650,237
995,240
380,243
523,243
499,244
505,244
533,242
530,240
539,237
561,234
591,232
608,239
599,273
594,353
630,459
671,569
678,623
656,623
664,623
684,623
689,623
700,622
708,578
728,495
718,416
703,350
712,306
713,282
697,276
697,279
686,286
672,290
687,289
692,280
639,269
609,256
603,243
602,234
585,227
583,224
584,223
971,225
951,228
547,232
570,234
598,236
583,236
568,237
591,237
599,236
623,234
656,232
649,242
650,280
675,355
695,467
711,567
689,623
727,624
707,623
660,623
598,594
547,527
515,456
479,383
439,329
398,293
405,276
421,275
415,284
392,294
366,301
344,301
336,293
360,279
394,263
425,249
451,240
437,233
422,229
413,227
611,228
903,228
280,231
363,235
376,238
386,240
386,240
364,239
405,237
469,234
519,232
523,236
526,263
536,324
502,414
525,524
523,605
534,623
538,623
536,623
507,572
518,502
518,430
503,364
499,312
474,279
476,270
468,275
442,288
385,303
356,311
301,311
282,301
263,285
255,266
245,250
224,238
232,229
240,227
265,227
287,229
289,233
408,238
939,240
282,241
451,242
446,241
458,241
519,241
561,239
570,236
566,233
552,232
583,241
610,278
608,351
603,454
634,574
630,623
626,623
614,623
629,623
653,624
636,623
643,570
651,489
649,406
654,345
655,302
656,280
719,273
742,277
680,283
582,286
519,284
482,277
458,263
435,250
422,239
412,231
426,228
431,227
425,227
786,230
819,232
442,236
463,238
468,238
480,237
503,236
526,234
536,234
572,233
599,232
608,243
615,280
619,354
641,455
686,558
655,623
632,623
646,623
655,623
667,602
652,533
657,460
648,392
619,336
572,295
552,277
557,275
549,283
534,295
495,302
488,301
496,291
454,275
428,258
371,244
362,235
351,229
332,228
364,227
712,227
980,229
470,231
571,235
586,240
612,244
607,244
570,243
541,239
532,235
530,231
492,234
456,259
418,325
374,418
432,521
407,605
400,623
423,623
433,623
418,577
412,505
414,425
407,360
390,309
358,276
329,264
328,267
332,281
325,296
333,305
337,305
341,297
325,283
329,266
346,249
377,235
381,228
392,224
411,224
440,226
450,229
861,234
710,238
404,242
437,245
406,246
380,246
384,243
401,241
424,238
421,235
444,235
481,251
495,311
490,404
574,519
585,621
597,623
606,623
620,623
617,623
601,623
611,623
585,585
570,493
556,407
558,338
563,289
543,269
543,266
555,274
551,283
543,287
531,285
523,274
510,261
485,244
467,232
475,224
483,220
495,220
490,222
505,227
725,231
995,235
436,237
568,239
577,239
603,238
634,237
653,235
669,233
694,230
709,230
742,238
731,275
754,350
792,456
829,569
804,623
782,623
804,623
793,623
748,623
706,622
684,539
658,453
620,375
572,310
538,274
505,261
494,264
462,276
438,290
421,295
417,293
403,282
383,269
367,251
392,239
366,230
330,226
328,225
361,226
381,230
378,233
785,235
337,238
377,238
363,239
358,239
346,238
368,237
383,235
395,232
415,229
429,229
445,241
415,285
392,368
409,476
430,591
415,623
415,623
400,623
419,622
425,602
401,523
394,439
385,363
367,301
333,269
335,259
352,268
355,283
349,300
319,307
321,306
306,295
321,278
314,260
313,243
330,230
339,222
346,218
372,220
374,222
392,226
429,230
434,234
824,237
825,239
446,237
489,236
484,235
485,234
520,235
557,235
553,234
549,234
573,235
597,251
589,306
568,398
624,515
595,622
627,623
601,623
610,623
625,623
629,623
594,623
514,610
513,518
508,426
494,353
448,301
474,279
477,275
466,280
441,288
415,293
396,289
438,279
521,266
511,252
497,238
532,229
550,224
534,222
540,221
546,222
577,225
571,228
992,232
856,235
603,235
592,234
596,232
581,230
609,228
659,227
683,226
689,225
718,227
723,243
717,291
725,378
777,491
754,610
737,623
733,623
747,623
732,623
735,624
689,599
699,512
689,428
675,351
650,302
651,277
611,272
599,282
586,295
564,304
524,305
554,296
527,280
483,262
471,245
455,232
434,223
423,218
408,218
424,220
473,225
970,233
266,238
433,241
414,242
448,241
440,239
444,238
451,236
477,233
501,230
504,229
500,242
490,286
451,365
462,480
464,582
463,623
503,623
487,623
463,623
449,570
442,487
422,404
380,328
355,281
334,257
333,256
312,269
278,292
269,308
263,316
264,312
283,300
256,279
265,257
268,240
312,227
294,219
301,218
318,221
338,226
359,232
367,236
843,239
586,241
420,241
411,240
384,240
389,239
396,239
383,240
384,240
410,236
460,236
502,254
529,305
509,408
589,528
582,623
574,623
577,623
593,623
608,623
607,623
582,623
574,623
532,539
534,443
516,363
494,305
501,280
506,277
503,284
499,292
497,296
494,292
493,282
487,270
480,256
485,242
497,232
478,224
500,220
507,221
538,223
540,228
582,232
995,236
446,239
587,240
560,240
556,242
580,241
605,238
605,235
618,232
633,229
642,231
644,254
617,317
594,419
659,539
639,623
629,623
631,623
636,624
646,624
661,623
653,623
639,529
636,435
638,350
593,298
577,272
542,271
530,281
504,297
501,306
506,307
515,298
508,280
478,263
470,245
475,232
469,223
456,220
434,223
454,226
448,230
440,234
430,238
588,240
948,241
302,240
433,236
417,234
421,231
417,228
408,227
397,227
398,229
419,230
422,235
396,263
393,325
390,422
470,534
452,623
448,623
462,623
461,623
474,624
448,591
446,493
439,405
418,334
400,289
392,266
389,268
382,283
373,300
364,313
371,316
382,310
378,294
365,275
370,253
369,236
365,224
367,217
345,217
363,220
393,225
400,230
400,234
400,238
418,240
538,241
986,240
266,238
444,238
440,236
449,236
451,235
439,234
477,234
511,235
518,234
545,241
575,273
587,354
600,465
625,587
626,623
633,623
622,623
627,623
640,623
650,623
675,623
659,608
662,507
652,412
645,333
632,289
600,270
613,269
620,277
607,286
552,290
537,287
543,278
542,265
521,249
517,238
498,229
510,224
508,222
500,223
483,226
505,229
515,233
513,237
721,238
994,237
414,234
566,232
569,231
561,231
574,231
615,230
610,229
635,228
659,227
670,233
668,262
651,338
645,445
708,563
705,623
698,623
692,623
694,624
687,623
670,623
647,574
657,479
643,393
609,326
568,286
545,271
552,275
521,290
485,306
455,317
439,315
432,304
407,285
398,265
388,246
404,232
384,223
358,221
344,221
345,225
346,230
544,236
825,240
263,242
353,242
355,241
346,239
349,237
371,236
388,234
398,232
402,231
415,236
420,261
404,322
381,417
393,528
409,623
414,623
430,622
422,623
437,623
426,594
404,504
399,414
394,339
391,282
388,256
383,255
374,270
363,290
384,309
382,316
387,314
388,301
392,280
350,259
364,241
370,229
371,222
376,221
368,223
394,225
552,230
987,234
295,237
425,241
442,245
459,245
475,244
484,241
515,240
561,236
582,234
596,239
604,274
611,348
616,461
636,598
574,623
559,623
567,623
569,623
554,623
534,623
529,624
520,623
470,524
435,414
443,336
439,288
414,267
386,266
378,275
372,285
365,289
346,286
345,275
368,261
349,247
379,233
392,224
437,219
740,220
977,220
403,223
548,229
600,233
629,237
653,239
668,239
679,239
727,236
734,232
744,236
722,266
693,345
668,455
670,575
636,623
617,623
639,623
659,623
646,623
646,623
664,592
655,494
651,399
637,325
630,273
601,255
569,258
543,271
518,285
478,293
425,290
386,279
381,265
386,249
356,234
319,223
317,217
350,216
437,219
927,223
212,228
418,233
422,236
419,239
408,240
426,240
457,239
492,237
503,232
499,231
513,247
522,295
483,394
490,508
494,613
482,623
472,624
450,623
436,623
442,622
439,534
415,432
395,348
388,286
379,252
381,243
382,256
379,276
396,296
404,307
379,306
359,293
356,274
341,254
354,237
370,222
368,214
320,212
238,216
215,222
182,228
400,234
624,237
4,239
108,239
93,239
122,237
121,234
97,232
103,232
139,231
166,231
174,243
178,286
192,383
282,506
284,623
300,623
326,623
356,623
376,623
390,623
423,623
440,623
424,623
426,556
435,442
433,350
478,286
516,259
496,254
535,262
561,268
559,272
546,269
533,261
516,249
539,237
534,225
534,217
545,215
554,214
569,219
540,222
536,224
770,226
996,227
481,230
570,233
578,234
591,232
606,229
605,226
619,223
662,221
684,221
702,236
703,283
707,374
787,499
789,623
751,624
754,624
746,624
760,623
741,624
706,624
702,624
705,623
683,537
664,414
650,328
648,275
650,253
639,251
631,260
630,270
616,272
616,268
593,257
602,245
613,234
616,224
580,218
570,214
573,214
569,218
563,222
616,225
995,227
395,229
555,230
525,230
531,231
531,232
515,232
506,230
502,228
502,225
506,224
493,241
488,291
485,382
555,510
533,619
513,624
499,624
504,623
496,623
484,623
475,565
466,464
453,362
436,292
404,253
364,241
354,251
347,276
308,298
291,310
290,310
293,295
254,275
230,252
232,233
228,218
224,211
213,208
225,211
231,216
326,224
761,231
57,235
256,238
266,240
262,239
269,237
320,236
361,233
377,230
363,227
388,231
410,256
421,321
413,439
471,564
480,623
471,623
485,623
466,623
478,623
484,623
483,624
461,547
422,434
423,348
424,288
413,257
398,250
406,259
416,275
412,287
391,289
371,283
391,270
386,253
394,236
375,224
399,215
412,212
418,213
425,217
447,221
485,226
517,230
991,233
453,233
500,231
498,229
501,227
503,225
508,225
517,225
533,224
542,224
560,229
577,263
588,337
582,452
622,587
626,623
634,624
625,624
624,623
636,623
657,624
658,624
648,624
626,623
623,506
627,389
582,310
531,263
535,245
530,245
506,255
462,263
437,265
435,260
430,248
413,237
392,224
407,215
416,210
405,209
420,211
424,214
444,217
482,220
479,222
480,224
563,224
994,224
386,223
535,221
545,219
559,218
569,216
580,216
611,216
640,215
668,216
667,226
676,261
687,339
731,458
800,593
798,624
832,623
865,624
860,624
847,624
822,624
807,623
793,623
766,532
734,411
688,329
667,278
636,257
617,256
597,267
578,277
547,281
536,278
499,268
495,252
514,236
538,223
530,213
528,208
550,210
536,214
539,219
553,223
569,229
559,231
781,232
988,230
377,228
535,226
538,224
513,223
509,222
526,222
529,222
528,222
527,221
528,223
531,250
521,314
495,417
546,534
521,623
519,623
512,624
498,623
485,623
492,601
464,503
461,406
448,324
446,270
439,244
414,247
408,267
392,292
380,315
352,324
341,321
338,308
317,286
284,260
280,239
277,222
279,212
286,211
268,214
265,220
524,227
674,232
261,238
314,240
346,241
370,240
377,239
354,237
391,233
408,230
436,228
445,233
465,259
459,322
441,421
500,536
477,623
492,623
506,623
519,623
498,624
498,623
504,540
495,442
478,355
458,287
471,254
477,249
446,261
434,283
416,304
409,313
411,310
380,298
362,278
381,256
389,236
377,221
354,211
318,209
330,210
400,214
542,220
0,227
0,233
0,238
0,241
0,241
0,240
0,237
20,234
107,231
158,235
224,265
255,338
319,467
369,601
409,623
452,623
487,623
517,623
556,623
582,624
606,623
598,623
593,623
637,505
684,396
700,314
688,264
694,248
690,251
688,259
668,268
652,270
657,266
678,256
679,243
705,230
689,220
697,213
685,210
676,210
667,213
903,218
999,223
584,226
670,228
641,227
644,225
627,222
621,220
639,219
664,219
647,218
675,229
668,272
672,373
776,505
793,623
762,624
757,624
742,624
742,624
767,623
764,624
742,624
712,624
689,549
666,430
647,333
633,266
616,238
598,235
569,243
562,255
550,259
537,259
510,253
519,241
521,228
496,219
465,211
461,206
448,205
438,208
436,214
445,218
459,222
693,223
891,225
366,225
480,226
503,226
472,224
458,222
459,220
484,219
501,217
495,218
501,227
490,265
461,347
443,480
441,609
415,624
411,624
399,623
384,623
369,623
361,623
368,623
334,495
299,386
302,304
299,258
296,243
281,255
280,275
286,295
316,307
328,304
322,290
325,269
329,248
318,231
323,217
340,208
338,205
352,207
357,212
385,218
393,224
529,229
962,232
249,232
434,232
434,232
457,230
455,228
477,226
485,224
499,223
500,223
500,231
528,271
556,355
608,481
633,618
628,623
663,623
649,623
621,624
625,624
612,623
608,624
604,623
598,555
592,421
573,327
572,269
546,243
527,242
535,255
496,269
486,275
458,273
444,263
441,247
428,232
438,218
459,210
486,206
490,205
502,208
530,213
811,219
992,223
470,224
545,224
555,224
546,223
534,222
526,221
553,219
590,218
634,217
627,228
642,273
651,364
723,493
679,624
616,624
608,624
596,623
597,624
581,624
578,623
596,623
595,607
597,474
591,367
601,290
599,250
565,241
539,253
527,270
546,282
549,284
541,276
525,261
523,243
520,226
516,213
489,202
496,198
677,199
985,204
336,212
476,222
472,229
477,234
474,238
468,238
481,236
506,233
502,229
505,227
487,250
472,313
443,415
493,539
473,623
477,623
481,623
461,624
441,623
445,623
452,529
459,420
441,327
433,262
438,228
449,229
446,249
448,278
463,304
474,314
467,311
449,297
449,274
442,248
438,227
417,212
397,204
531,204
917,210
216,218
332,224
341,231
368,238
363,242
368,244
381,244
403,241
436,236
451,241
439,274
432,352
448,485
448,618
425,623
434,623
449,623
458,623
454,624
466,624
467,623
470,623
459,513
456,399
456,312
467,263
446,244
405,250
399,264
402,275
405,278
372,272
358,260
365,245
379,232
403,218
400,211
412,208
435,209
443,213
474,219
543,224
995,228
506,230
577,231
569,231
584,229
607,229
614,227
623,224
642,223
688,220
724,226
712,263
705,360
777,496
777,624
742,624
724,624
709,624
700,624
688,623
676,623
658,624
647,624
641,623
600,605
587,473
550,352
562,283
538,248
513,236
500,238
493,242
492,243
473,240
453,232
480,225
479,218
491,213
491,211
503,211
540,215
875,220
978,224
460,228
530,230
517,230
503,231
494,232
489,231
536,228
552,224
551,220
552,226
562,264
548,362
574,492
570,622
547,623
548,624
529,624
507,623
499,624
480,624
456,623
419,504
397,387
388,298
380,241
369,224
352,233
353,253
345,272
341,282
321,278
311,264
312,245
300,227
300,212
300,204
296,201
311,202
322,206
308,211
538,217
868,222
261,224
377,226
383,226
397,226
416,225
431,225
434,223
447,221
472,220
497,232
496,285
488,388
585,530
581,624
555,624
533,624
543,624
531,624
504,624
469,623
453,623
454,624
456,602
445,469
420,346
420,274
437,238
424,228
423,234
434,244
454,248
452,245
445,237
463,224
493,212
499,204
514,199
513,198
526,200
614,206
996,211
371,216
475,220
477,222
482,224
481,225
487,225
501,222
545,218
547,214
560,218
570,248
576,335
626,462
669,608
643,624
648,624
649,624
646,624
632,623
627,623
631,624
618,624
612,597
611,462
607,336
612,262
606,225
588,219
578,228
588,242
572,249
560,248
562,240
549,229
545,218
540,210
522,205
521,202
539,205
991,210
363,216
511,222
481,228
457,233
442,235
431,236
441,233
430,227
373,221
352,217
356,231
358,282
338,392
385,523
381,624
384,623
392,623
373,624
376,623
386,623
386,623
374,494
346,377
338,288
327,233
318,214
300,223
294,246
312,269
315,284
314,287
299,276
316,256
324,234
306,217
294,204
300,199
330,199
334,202
787,210
296,219
375,226
393,232
388,235
400,236
411,237
451,235
473,231
492,227
519,228
552,254
565,328
581,452
635,598
621,624
612,624
599,624
583,624
570,624
577,623
581,624
561,624
527,624
518,534
520,403
515,302
519,240
500,213
493,212
483,222
484,234
487,239
475,236
507,229
486,220
466,210
491,203
518,199
525,199
530,202
992,206
515,210
499,214
489,218
495,220
509,221
546,222
570,221
584,219
600,217
615,219
627,250
619,329
657,457
696,606
675,624
655,624
644,624
639,623
631,623
612,624
576,624
567,623
571,623
571,480
550,347
543,263
537,219
546,206
542,213
508,225
517,234
524,235
529,229
505,220
497,211
519,202
509,198
512,195
503,197
539,202
600,208
993,213
377,219
501,223
500,225
494,226
480,225
471,222
469,219
474,215
477,210
487,213
491,242
495,315
476,436
528,576
502,624
480,623
472,624
446,624
433,624
409,624
411,623
396,541
361,416
345,306
342,243
332,218
322,222
316,241
309,262
313,273
311,275
302,266
296,250
307,229
320,211
317,200
311,196
320,197
334,200
345,206
350,214
367,221
392,227
673,229
957,230
324,229
428,227
445,225
446,224
450,224
480,223
491,221
510,217
513,218
528,233
549,289
556,411
649,557
632,624
630,624
663,623
662,624
647,624
657,624
675,624
654,623
640,623
621,592
607,459
591,345
599,266
577,230
572,222
566,227
562,238
546,242
551,241
565,234
563,224
554,213
552,206
568,201
574,200
566,203
528,206
530,211
522,217
650,222
994,224
356,221
527,220
520,220
519,220
516,220
533,219
570,217
633,217
674,218
707,227
718,264
713,348
757,473
726,620
709,624
694,624
669,623
631,624
605,624
588,624
571,623
531,585
504,447
478,341
463,267
433,230
396,225
371,241
348,262
332,277
325,280
314,271
312,253
318,234
296,217
243,203
211,194
200,192
140,196
106,203
119,210
602,219
102,224
134,227
152,229
173,229
230,227
262,224
264,222
297,219
339,217
370,219
386,240
395,301
399,407
514,558
519,623
539,624
564,624
593,624
599,624
606,623
612,624
618,624
603,503
589,386
573,298
552,247
556,226
553,232
534,248
535,263
532,272
513,270
496,259
475,242
495,226
493,211
499,201
495,197
512,197
522,202
529,208
504,214
772,218
989,223
394,225
474,226
470,224
495,222
520,219
562,218
574,217
594,216
633,216
640,232
645,292
623,399
727,539
726,624
686,624
656,623
661,624
676,624
674,624
652,623
621,623
624,623
609,582
591,451
533,336
506,269
499,238
484,234
460,242
441,255
458,259
445,256
450,247
439,234
453,222
442,212
437,206
443,204
454,207
880,213
566,219
417,226
445,233
450,235
440,235
425,234
417,232
434,228
455,222
468,220
476,230
461,277
458,382
554,512
552,624
559,623
558,624
555,624
540,624
513,624
481,623
423,536
390,416
371,316
326,250
321,219
317,223
311,242
301,264
299,281
305,287
293,279
277,264
263,245
288,228
277,210
287,202
291,199
304,201
313,207
773,214
492,220
331,226
339,231
323,233
327,233
335,232
338,230
376,226
394,220
423,220
464,243
482,314
522,449
600,597
585,623
604,624
629,624
619,624
635,623
645,623
660,624
648,624
604,624
581,536
572,406
567,307
545,244
537,221
540,220
535,228
536,237
512,241
521,236
538,228
553,218
535,208
525,203
542,202
559,204
577,209
805,214
996,219
452,224
589,227
576,228
587,228
607,227
620,224
635,221
654,218
665,215
712,228
719,279
714,380
809,535
813,624
801,624
777,624
758,624
732,623
712,624
694,624
668,624
635,623
623,532
604,400
573,301
543,242
540,220
508,224
489,237
465,249
456,252
443,248
422,240
401,228
377,217
371,207
337,202
299,200
374,203
845,208
114,215
289,222
259,226
295,230
352,232
376,230
388,227
409,223
433,218
442,222
455,256
457,339
467,465
515,616
479,624
458,624
460,623
458,623
452,624
433,623
394,624
369,547
362,420
333,308
318,244
325,217
322,216
322,235
297,255
304,267
302,268
297,259
276,244
261,227
245,211
248,201
253,195
237,196
252,201
270,210
306,220
319,228
339,233
503,234
981,233
248,229
401,224
410,220
437,217
477,215
496,215
473,216
507,216
529,219
559,237
570,303
578,419
702,571
680,624
630,624
622,624
602,623
589,623
589,624
630,624
625,624
655,623
662,624
657,596
611,444
623,334
630,265
580,230
567,219
597,221
595,225
573,227
580,224
590,218
605,212
590,207
587,207
584,207
546,211
545,217
545,223
516,228
509,232
605,233
995,232
424,229
590,226
595,223
582,220
568,219
577,217
587,218
592,218
586,220
602,227
597,261
602,352
633,482
621,622
599,624
594,624
565,623
537,623
515,624
486,624
503,624
478,623
407,515
374,390
339,299
312,244
292,228
298,236
290,255
290,270
278,275
271,269
272,255
303,238
325,218
317,205
319,198
322,200
340,205
316,212
308,219
319,225
316,228
310,229
746,230
430,228
335,225
328,223
311,221
328,219
354,218
387,217
404,217
410,216
471,222
504,252
524,332
554,476
635,623
614,624
615,624
594,624
611,623
637,624
672,624
680,624
656,623
656,624
664,624
660,520
662,391
647,290
652,241
670,221
661,220
637,225
625,229
621,227
627,224
607,219
620,213
614,209
589,204
558,203
565,205
572,210
547,214
547,218
546,220
560,220
695,219
998,218
631,217
698,216
702,216
726,216
751,216
784,217
810,217
828,217
818,218
811,226
803,264
813,352
884,504
846,624
763,624
705,624
674,624
639,624
576,624
503,623
424,623
358,624
314,624
285,547
270,414
262,314
234,253
214,233
220,234
221,243
220,251
200,252
206,246
224,236
217,226
213,216
227,210
253,207
281,207
277,211
248,216
240,222
260,226
336,227
831,226
103,223
312,221
328,220
351,220
349,218
365,216
390,214
410,213
412,214
419,221
443,253
435,334
468,461
492,620
456,624
448,624
454,624
444,624
410,624
438,623
444,623
423,624
393,569
408,433
419,325
423,257
411,229
419,230
418,244
428,260
437,268
436,265
438,253
440,236
448,219
444,205
464,197
456,196
474,199
465,205
464,211
498,217
523,220
538,222
571,224
995,223
455,222
527,218
499,216
492,214
503,214
526,214
532,214
553,214
573,214
584,224
594,264
598,358
700,499
727,624
727,624
713,624
696,624
699,624
695,623
698,623
685,624
672,624
682,623
659,623
605,511
612,385
608,295
614,241
600,224
593,224
578,230
543,235
529,234
530,227
513,218
497,208
422,201
354,198
326,199
307,202
301,206
318,213
338,219
355,225
765,227
630,225
413,222
442,218
473,214
518,212
540,211
553,212
588,213
614,213
627,214
636,234
642,294
645,406
728,553
685,624
665,624
648,624
632,624
605,623
548,624
548,624
547,624
523,608
502,472
456,344
427,270
389,237
371,234
350,251
336,269
334,278
334,277
316,265
310,244
318,224
309,208
323,197
320,191
342,192
369,198
375,207
389,214
451,221
988,225
299,227
463,228
458,226
460,223
473,221
491,219
501,216
522,213
544,211
543,218
561,255
573,343
665,497
665,624
635,623
611,624
602,624
601,624
585,624
564,623
564,623
553,624
524,624
508,584
503,444
493,332
489,257
475,228
464,225
466,233
470,241
445,242
437,237
422,227
424,215
418,202
409,195
426,193
435,194
448,197
464,204
488,210
497,215
508,217
693,218
992,218
370,217
497,214
509,213
509,212
509,211
554,209
580,208
601,207
602,208
601,226
621,282
600,395
720,569
706,623
691,624
690,624
668,624
644,624
646,623
651,624
637,624
607,624
594,623
590,600
586,458
655,345
657,269
667,237
683,230
668,231
650,235
630,233
644,229
630,221
613,212
611,204
608,200
614,201
592,204
595,210
994,217
641,222
548,225
520,226
505,225
478,222
462,219
451,215
450,213
462,209
553,209
614,228
641,289
666,402
749,564
696,624
649,624
619,624
613,623
605,624
595,624
576,624
535,623
499,506
464,374
418,277
387,222
363,207
323,220
296,244
284,265
276,273
267,270
229,256
211,236
213,217
206,201
201,189
203,185
219,187
227,193
245,201
247,208
737,214
266,217
286,220
295,222
286,221
325,221
353,221
378,220
361,216
372,213
404,217
432,251
439,350
513,497
578,624
574,623
584,624
574,624
598,624
616,624
627,623
628,624
628,624
637,624
638,624
641,568
635,416
641,316
672,254
704,227
707,220
703,223
701,225
689,224
685,219
660,211
654,204
674,199
671,197
660,198
679,202
997,205
496,211
564,217
497,222
483,226
475,228
441,230
424,230
437,227
461,222
485,224
512,253
506,331
554,478
577,623
559,624
541,624
547,624
548,624
517,623
478,624
453,624
441,624
405,623
384,479
357,351
378,264
380,222
375,220
378,234
370,250
373,258
344,255
327,243
297,227
301,210
311,197
293,191
291,190
681,193
652,202
329,213
353,220
350,227
369,231
390,233
416,232
446,228
459,222
455,218
466,236
469,299
475,418
580,573
572,624
527,624
519,624
525,624
523,624
527,623
511,624
489,624
509,624
499,506
484,356
469,262
473,214
478,203
484,216
470,233
472,245
484,246
495,239
489,225
513,212
535,200
553,193
558,192
569,194
583,198
795,203
998,208
557,213
661,217
649,220
622,220
615,220
608,218
624,218
654,216
639,216
641,236
650,304
672,431
739,598
685,624
630,624
618,624
603,624
597,624
574,624
574,624
571,624
555,623
544,623
531,621
538,458
506,330
465,247
437,204
441,189
432,192
417,198
392,203
392,204
407,202
404,199
412,196
424,194
439,196
440,199
666,204
950,208
299,212
457,215
438,217
447,218
459,220
496,219
534,217
552,212
578,208
595,217
597,278
587,394
636,550
615,624
616,624
579,624
591,623
580,624
588,624
586,624
541,623
523,623
505,541
483,392
432,271
407,211
406,193
402,202
398,224
388,239
357,243
346,237
353,224
337,209
335,196
350,189
340,185
336,188
329,194
331,201
766,207
564,211
328,215
329,216
332,216
360,216
373,215
374,213
394,210
406,207
435,210
434,237
430,330
474,472
498,624
493,624
477,624
492,624
494,624
491,624
470,623
465,623
471,624
438,624
422,595
409,423
396,301
405,224
392,190
375,186
385,197
376,208
366,214
354,214
348,207
363,199
364,191
381,187
381,185
385,188
421,192
427,198
430,203
458,207
499,210
493,211
734,210
996,209
440,207
581,205
561,203
563,203
586,203
609,202
646,202
665,201
689,204
709,226
722,311
734,452
817,623
795,624
784,624
758,625
737,624
738,624
746,624
738,624
723,624
698,624
674,623
638,623
615,539
571,393
554,286
559,223
541,191
502,183
484,184
485,187
464,190
437,191
436,190
429,189
433,190
432,192
410,196
422,202
414,209
402,214
428,217
956,218
299,218
409,216
401,213
390,211
384,210
407,209
413,208
419,207
435,207
453,211
466,239
470,318
507,467
542,623
541,624
519,624
517,624
505,624
500,623
495,623
476,624
453,624
463,556
479,407
478,295
460,228
433,204
434,212
411,232
387,249
378,256
375,253
370,240
344,224
316,205
296,189
287,181
287,179
288,183
316,190
348,200
354,207
344,213
351,217
376,218
920,218
477,216
433,214
451,212
453,210
443,208
466,207
510,207
536,207
539,206
542,215
546,256
545,354
645,527
651,624
620,624
608,624
613,624
582,623
551,624
541,624
538,624
528,624
486,624
481,623
484,624
506,557
506,402
502,301
513,239
531,206
530,193
521,189
498,188
496,188
514,185
516,183
496,183
517,186
527,190
542,194
544,199
559,204
578,208
583,211
559,212
784,212
995,210
465,206
615,203
618,201
637,201
666,202
685,204
694,205
695,205
696,207
715,225
701,284
690,417
780,585
740,624
703,624
660,624
631,624
646,624
639,624
622,624
586,623
564,624
538,624
532,587
511,437
491,310
479,243
484,216
455,214
435,220
425,224
408,223
390,216
365,207
340,196
331,190
338,187
330,188
324,192
340,199
348,206
359,211
539,216
934,219
288,220
398,219
389,219
391,217
394,214
401,211
404,208
394,206
401,206
415,218
417,264
393,367
481,518
480,624
466,624
440,624
431,623
444,624
431,624
423,624
396,624
387,623
393,556
383,395
377,286
360,223
360,204
363,213
366,233
368,252
377,260
394,256
370,243
378,225
385,207
399,191
406,182
400,179
410,182
431,189
442,198
441,207
643,214
991,219
373,222
514,222
510,222
532,219
549,215
573,212
583,209
601,206
624,206
630,221
638,280
622,416
740,584
736,624
730,624
708,624
689,624
674,623
662,624
652,624
643,624
645,623
634,623
609,623
611,470
592,333
589,254
586,214
570,203
553,207
549,212
554,214
539,212
517,206
518,198
518,191
506,187
500,186
524,190
550,196
836,203
993,210
446,213
573,216
579,218
578,219
569,219
585,218
598,213
619,209
632,207
624,220
618,279
611,393
714,548
672,624
635,624
602,623
594,624
568,624
536,624
522,624
487,623
448,623
421,514
408,376
389,267
361,217
336,205
319,218
312,238
309,256
296,260
279,254
284,238
313,219
304,202
301,190
320,185
334,185
332,188
752,195
570,202
343,209
367,214
357,216
371,220
396,221
419,221
445,221
446,217
456,217
485,240
506,313
533,460
585,622
578,624
562,623
551,624
527,624
531,624
532,624
510,623
499,623
488,624
487,623
485,465
465,336
435,247
421,210
427,203
423,211
399,222
381,227
396,227
383,220
385,211
378,200
398,192
419,188
438,188
440,193
547,199
994,204
358,209
523,213
508,216
526,218
547,219
559,217
563,212
563,207
589,207
607,219
624,271
623,383
719,560
710,624
685,624
682,624
670,624
695,624
683,624
672,624
678,624
666,624
664,623
647,572
631,421
613,295
609,227
571,198
543,197
532,205
535,215
516,217
499,214
491,208
480,201
473,194
465,190
455,189
444,191
632,198
946,204
356,210
485,216
493,220
498,224
507,225
507,223
522,219
543,213
540,208
547,216
543,264
535,369
628,534
591,624
568,624
539,624
533,624
512,623
498,624
506,624
489,624
462,571
423,423
405,303
381,227
358,196
345,202
337,225
331,250
327,266
322,267
286,254
293,234
284,214
289,197
279,185
266,183
289,186
557,192
795,199
253,208
331,215
351,221
373,225
380,227
386,224
405,218
449,214
454,210
443,227
459,292
465,416
582,577
560,624
543,624
550,624
543,624
523,623
516,624
528,624
510,624
494,623
481,598
478,431
478,311
460,232
439,198
412,194
408,207
424,221
421,228
405,227
409,218
422,207
444,197
449,191
439,188
465,190
462,194
469,199
459,206
477,209
613,213
993,216
327,217
502,216
502,215
498,214
497,212
525,211
536,210
558,208
549,209
549,229
568,296
583,441
698,613
672,624
651,624
661,624
648,624
663,624
648,624
646,624
653,624
630,624
575,624
560,623
567,513
567,357
524,261
524,210
517,191
513,188
506,193
485,197
465,199
483,199
492,196
488,192
493,192
510,192
521,194
511,198
530,203
543,207
558,211
904,213
905,214
496,213
539,212
538,210
544,210
554,210
574,210
594,209
586,208
573,210
585,234
575,306
580,433
669,610
642,624
632,624
618,624
594,624
574,624
558,623
553,624
520,624
502,624
471,519
478,382
473,285
444,234
415,221
411,230
400,245
388,254
375,255
356,243
328,227
316,210
316,198
307,191
312,190
309,194
298,201
308,209
603,217
639,221
311,222
344,224
351,224
337,223
339,222
344,219
365,216
390,211
409,210
424,227
420,287
422,405
536,577
512,624
495,624
486,624
510,623
515,624
495,624
492,624
468,624
471,623
462,498
452,362
434,267
433,217
437,205
440,216
438,233
433,246
424,248
406,238
403,224
418,209
416,197
438,188
411,186
415,188
435,195
460,202
458,211
922,219
785,224
468,226
483,225
464,223
461,220
472,217
487,214
494,211
512,209
517,214
562,248
559,338
630,502
649,624
647,624
631,624
618,624
615,624
621,624
620,623
609,624
577,624
562,624
562,623
536,592
523,424
502,306
510,233
495,198
500,190
481,195
479,202
475,206
478,206
483,203
476,196
496,190
500,186
494,187
508,191
528,195
704,201
995,208
379,213
546,217
542,217
540,217
529,215
545,213
587,210
611,207
617,205
636,217
646,274
648,387
765,545
734,624
715,625
709,624
702,624
686,624
674,625
687,624
672,623
639,623
601,596
588,444
568,311
506,239
482,211
427,214
419,229
380,243
356,248
339,243
327,232
338,216
336,204
326,193
341,190
351,191
364,197
597,203
879,210
299,215
418,219
392,223
392,223
408,223
424,222
445,217
464,210
483,206
512,214
534,260
516,376
595,530
567,624
562,624
561,624
517,624
491,624
495,624
492,623
472,623
456,624
443,472
421,340
384,253
356,209
359,208
384,226
375,248
367,262
348,265
349,255
348,237
355,218
343,198
359,185
370,179
352,180
351,185
352,193
360,204
590,213
937,219
280,221
406,222
400,221
414,220
415,218
426,216
457,212
481,207
485,208
505,236
521,317
562,463
627,624
589,624
560,624
551,624
510,623
479,624
469,624
467,624
453,624
435,623
419,623
408,624
418,580
417,426
401,308
397,236
386,200
368,189
361,189
366,192
362,193
347,193
335,192
327,191
336,191
346,192
347,194
358,197
362,202
433,206
986,210
245,213
437,214
441,214
485,212
499,210
523,207
544,205
565,202
612,201
629,215
640,273
655,393
792,581
787,624
786,624
774,624
772,624
770,624
733,623
714,624
703,624
697,624
661,624
628,623
624,473
610,338
593,243
554,201
532,190
525,194
527,200
509,204
491,202
508,198
516,193
522,188
511,183
512,181
531,183
530,188
553,195
993,203
662,208
570,212
575,215
574,217
588,216
614,214
624,211
630,207
635,202
662,202
664,224
652,296
676,443
762,607
735,624
713,624
696,624
676,624
669,624
652,624
624,624
595,624
560,560
536,409
505,293
464,224
456,204
455,216
417,240
378,261
376,268
345,260
337,244
318,224
312,206
320,190
337,182
334,181
451,186
939,194
232,204
376,213
354,218
364,223
383,226
395,227
403,224
402,221
418,217
434,225
429,269
409,372
499,526
507,624
502,624
485,624
466,623
481,624
493,624
472,624
476,624
475,623
473,623
461,451
433,323
407,241
398,205
391,200
380,215
356,229
358,237
352,235
352,224
346,211
358,199
376,191
388,187
391,187
407,191
415,196
697,203
981,209
360,213
424,216
418,217
428,217
432,215
457,212
477,207
491,203
482,203
481,231
493,316
554,465
625,624
639,624
632,624
636,624
656,624
643,624
636,624
650,624
652,624
639,624
617,624
601,608
604,446
588,314
579,230
578,184
563,173
560,178
540,186
514,193
511,197
525,195
529,191
523,186
515,184
521,183
823,187
992,192
427,197
554,203
555,207
565,211
552,214
552,215
575,214
582,210
588,206
600,217
613,282
621,404
714,567
697,624
658,624
661,624
673,624
657,624
615,624
608,624
574,624
544,624
507,531
478,382
448,264
430,207
404,193
380,203
372,223
366,237
339,239
326,232
320,218
308,201
287,189
272,180
270,176
277,178
739,186
393,194
293,203
288,211
293,218
274,222
277,225
301,225
327,221
352,215
343,213
356,239
382,317
437,458
481,624
464,624
471,624
492,624
479,624
472,624
487,624
485,623
484,624
464,624
461,520
444,368
429,261
434,203
426,186
409,195
396,211
388,223
396,227
405,221
410,210
428,199
423,190
413,184
417,184
430,188
424,193
426,200
434,206
907,210
821,213
444,214
477,213
496,212
529,210
544,208
541,207
563,203
576,201
578,207
578,244
567,356
677,522
691,624
678,624
685,624
689,624
710,624
715,624
700,624
689,624
677,624
680,624
674,624
653,602
628,425
604,300
614,223
597,187
599,178
585,180
571,186
556,190
562,190
558,189
558,186
550,183
539,182
541,184
559,190
679,195
996,202
383,207
578,210
565,213
564,214
556,214
566,213
572,211
555,208
551,204
584,211
578,254
577,368
664,526
623,624
594,624
567,624
535,624
519,624
512,624
506,624
492,624
443,624
432,549
434,394
420,278
399,209
385,193
362,206
346,229
328,248
301,253
289,246
291,230
293,211
298,193
298,181
305,174
325,175
318,182
655,192
720,202
306,210
358,216
350,221
351,223
377,223
388,220
409,218
430,215
459,215
499,235
497,305
510,440
587,623
580,624
564,624
552,624
556,624
557,624
562,624
570,623
560,624
539,624
512,624
509,481
479,343
442,246
426,205
421,197
396,206
364,218
350,225
345,223
327,215
311,205
328,195
338,187
348,184
359,184
374,188
395,194
963,201
357,207
421,212
427,215
461,215
478,213
464,211
474,209
506,205
523,202
532,209
544,254
561,362
693,548
690,624
677,624
677,624
689,624
701,624
686,624
684,624
683,624
679,624
643,624
628,623
637,538
661,386
678,267
678,208
673,184
682,182
671,189
617,197
565,201
549,202
541,198
533,194
512,191
519,191
547,194
974,200
684,205
520,211
548,216
531,220
530,222
533,221
512,217
499,212
500,206
505,205
481,230
481,309
485,447
538,614
489,624
466,624
468,625
460,623
437,624
417,624
410,624
396,624
370,556
340,389
312,275
295,211
271,190
252,203
211,231
204,252
184,260
148,255
135,239
128,220
146,202
147,186
157,178
314,177
749,181
29,191
218,201
210,211
208,219
222,223
244,225
265,224
303,220
350,215
338,222
330,267
333,372
432,546
410,624
422,624
415,624
419,624
430,625
415,624
403,624
403,624
409,624
421,562
412,404
414,284
416,212
422,185
411,191
410,210
419,227
426,236
436,232
433,221
453,207
471,194
505,183
521,179
520,179
541,183
940,190
990,199
545,205
586,212
583,216
569,219
545,220
548,218
566,215
599,210
609,213
622,251
623,350
745,511
749,624
728,625
716,624
711,624
696,624
681,624
671,624
684,624
684,624
672,624
666,624
675,586
692,418
684,287
662,205
636,165
635,159
622,167
608,177
586,186
565,190
596,190
589,188
591,186
606,185
638,186
644,191
791,195
998,201
564,205
695,210
672,212
653,213
643,214
651,213
647,209
640,205
647,202
663,218
658,282
644,409
722,582
685,624
659,624
638,624
617,624
585,624
593,624
569,624
555,624
536,623
493,623
455,458
396,319
356,230
318,191
311,189
288,201
272,215
274,221
274,218
302,208
296,197
290,188
291,181
297,178
297,179
364,186
837,195
118,203
315,212
295,218
292,221
307,222
336,220
334,216
360,210
387,206
413,211
436,258
394,365
502,523
500,624
490,624
483,624
496,624
511,624
504,624
502,624
478,624
465,624
460,538
458,380
424,254
393,191
389,171
393,180
393,202
363,223
357,232
363,230
358,218
359,203
348,190
365,181
363,177
384,177
384,181
407,187
450,196
517,203
993,208
327,211
486,212
496,213
496,212
484,210
518,208
551,205
571,203
587,201
608,220
626,288
655,424
773,607
755,624
748,624
746,625
757,624
734,624
716,624
718,624
723,624
711,624
697,624
705,624
715,606
716,443
695,313
673,224
676,185
673,171
621,171
607,174
576,179
560,182
551,183
522,183
528,187
524,190
519,193
514,198
902,204
918,210
521,214
529,215
540,216
557,217
545,216
535,213
529,207
563,201
566,200
557,223
546,300
569,439
659,613
650,624
600,624
580,624
572,624
567,624
548,624
515,624
506,624
483,623
478,453
428,317
390,230
386,193
366,195
356,217
320,239
308,251
290,250
290,235
282,214
267,196
273,183
270,177
269,176
265,183
346,191
860,200
152,208
339,217
338,222
354,226
367,225
383,222
376,217
390,210
410,204
434,211
466,267
475,385
603,555
580,624
548,624
516,624
527,624
535,624
543,624
535,624
533,624
530,623
520,623
500,558
492,386
491,273
479,210
467,188
469,190
447,202
435,211
420,212
404,207
402,194
395,185
414,179
421,179
427,184
432,192
431,200
457,206
814,210
981,214
457,213
486,212
483,211
478,208
496,206
492,202
518,200
527,198
544,201
563,240
573,338
674,502
708,624
707,624
688,624
674,624
661,624
668,624
662,624
659,624
640,624
625,625
609,623
604,624
595,480
587,335
587,239
583,183
546,166
532,168
541,179
540,188
521,191
523,190
525,186
530,182
553,181
549,181
552,183
879,189
993,196
494,204
582,210
585,216
591,219
592,219
590,215
588,209
598,202
626,199
625,215
604,281
597,410
692,581
667,624
615,624
607,624
597,624
587,624
558,624
530,624
510,624
492,624
468,505
439,341
410,240
390,192
365,186
348,203
332,227
335,240
288,242
279,233
270,215
280,195
285,182
287,176
280,176
289,182
432,191
852,201
141,209
307,214
314,219
322,220
306,219
319,218
345,214
374,208
379,204
370,215
374,267
376,399
481,572
460,625
443,624
427,624
413,624
416,624
428,624
441,624
447,624
432,623
417,623
416,506
404,358
386,247
372,198
358,185
344,193
350,209
339,218
322,219
325,214
325,205
328,193
346,186
357,182
399,184
420,188
447,194
453,202
633,208
995,212
372,213
486,214
473,212
474,209
457,206
439,203
436,199
443,198
471,200
494,230
530,315
551,466
618,624
617,624
609,624
608,624
647,624
663,624
669,624
635,624
629,624
608,624
618,624
609,623
587,540
597,384
591,270
585,202
592,172
591,168
557,172
557,177
564,180
570,181
601,179
597,178
577,179
578,183
597,189
598,198
877,206
997,213
543,218
671,219
664,218
679,218
697,216
724,212
735,208
737,202
736,197
759,213
772,279
763,409
869,583
826,624
804,625
785,625
761,624
732,624
731,624
716,624
668,624
624,624
615,565
600,392
567,276
526,213
503,195
470,205
422,226
403,239
374,242
321,235
294,221
266,205
235,192
224,183
225,181
689,184
168,192
229,201
245,210
247,218
252,223
271,224
290,223
308,220
362,216
378,214
359,233
344,301
331,429
406,606
364,624
353,624
363,624
359,624
344,624
325,623
334,624
352,624
339,497
159,347
0,240
0,186
0,176
0,195
121,228
337,251
420,261
484,256
516,238
503,217
540,198
552,184
561,175
562,175
994,181
913,189
567,197
568,206
564,214
542,222
535,226
537,225
564,220
590,215
595,219
595,258
596,360
694,543
679,624
637,624
593,624
567,624
567,624
563,624
557,624
562,624
550,624
524,624
509,624
503,581
509,415
495,276
462,203
432,172
453,168
466,176
496,184
509,190
501,190
484,188
477,185
467,183
468,182
462,185
451,189
412,195
848,200
727,204
391,207
423,208
411,208
412,205
435,205
473,203
505,200
560,197
594,203
624,246
640,368
780,544
783,625
788,625
772,625
737,625
696,624
685,624
693,625
716,625
706,625
701,624
652,624
567,603
557,416
579,284
627,203
638,166
631,158
617,165
613,174
593,179
575,181
572,180
565,178
559,176
537,175
558,176
540,181
542,186
556,193
555,198
563,203
591,208
996,209
559,208
578,206
566,202
560,201
563,200
578,199
566,198
592,198
596,197
582,204
556,245
540,347
646,525
641,624
596,625
562,624
552,624
536,624
510,624
479,624
481,624
476,623
448,624
411,482
384,342
343,251
322,209
317,209
302,225
288,241
268,248
249,244
244,230
259,213
272,197
285,185
268,180
274,179
285,182
296,190
303,200
577,209
746,215
262,218
323,220
303,221
291,220
293,217
305,213
323,206
364,200
399,198
426,215
425,290
435,423
556,595
554,624
539,624
542,624
555,624
557,624
548,624
538,624
525,624
518,624
519,624
502,457
482,313
458,236
456,202
467,200
459,212
430,226
416,230
402,225
382,213
367,200
365,186
379,179
369,177
376,180
366,189
376,195
387,202
688,207
885,210
355,212
416,214
434,212
444,211
458,209
481,206
487,203
502,200
518,202
527,234
546,323
614,477
693,624
703,625
712,625
701,624
700,624
692,625
692,625
686,625
668,624
621,624
605,625
595,625
563,553
524,397
482,282
474,213
456,179
429,172
403,176
397,181
406,186
403,187
401,185
409,182
425,182
429,183
436,184
449,187
440,191
446,197
503,202
824,206
991,207
449,208
536,206
513,205
509,203
513,200
533,198
522,198
529,197
552,201
559,227
572,320
631,473
709,624
713,624
709,624
678,624
663,624
668,625
657,624
652,624
601,624
596,624
570,624
546,624
526,448
485,324
465,246
462,208
435,197
409,199
384,202
369,202
368,199
356,194
340,187
340,181
348,179
355,180
393,183
397,187
420,193
452,198
459,204
467,207
481,207
503,207
724,203
996,199
451,196
568,195
555,194
554,192
564,194
589,196
608,197
621,196
614,198
639,218
648,286
640,416
752,594
738,624
720,624
696,624
678,624
668,624
667,624
659,624
641,624
617,624
607,623
581,580
563,431
551,320
522,255
514,228
494,227
457,233
451,237
428,234
408,225
404,213
413,200
423,190
421,182
408,181
424,183
439,188
454,194
440,203
455,209
474,214
678,218
991,219
388,217
507,214
514,210
513,206
539,203
529,203
533,202
540,203
545,203
527,213
502,254
486,350
550,497
560,624
555,624
529,624
516,624
491,624
480,624
461,624
426,624
406,623
375,513
341,356
338,261
330,217
325,214
322,239
314,266
313,283
276,286
252,278
237,256
245,232
243,209
251,190
258,180
284,177
324,180
346,187
343,197
344,207
588,215
930,220
270,223
379,222
377,219
376,217
389,216
411,215
450,212
485,209
521,206
527,218
526,267
533,389
655,552
653,624
649,624
646,624
657,624
648,624
634,624
613,624
615,624
615,624
612,624
587,610
588,457
561,328
532,261
503,235
505,233
496,240
488,246
470,246
449,237
451,223
449,207
429,195
427,187
432,185
459,187
465,192
470,199
642,207
992,213
333,218
478,221
461,222
459,223
488,222
495,219
509,217
557,215
572,212
604,223
598,283
595,402
721,572
702,624
679,624
640,624
629,624
642,624
619,624
579,624
556,624
538,624
519,624
512,624
499,489
480,357
463,271
434,226
437,211
420,215
420,221
417,222
396,218
387,209
407,200
425,191
434,185
463,182
462,183
485,185
499,190
514,196
523,202
990,208
859,212
544,213
560,213
589,212
606,210
629,207
642,205
642,202
655,199
671,203
661,230
654,312
739,475
791,624
783,624
760,624
748,624
745,624
749,624
736,624
703,624
675,624
667,624
626,624
611,520
602,379
580,278
566,234
535,222
520,227
504,236
496,238
487,233
491,221
506,208
521,193
524,182
513,179
515,180
512,185
568,191
992,199
467,206
548,212
560,219
563,223
581,224
586,223
598,221
595,217
606,212
623,209
611,224
596,294
562,417
637,574
606,624
599,624
581,624
486,624
444,623
428,624
396,624
352,624
325,490
305,344
289,242
268,190
217,192
209,220
199,258
191,287
182,300
166,293
186,273
220,247
215,217
217,194
401,180
706,176
95,177
243,185
246,194
268,205
277,216
297,226
312,231
332,232
349,231
365,238
353,280
343,376
461,521
474,624
467,625
454,624
468,624
476,624
476,625
456,623
451,623
458,624
476,516
474,369
489,258
498,207
504,197
484,214
477,238
486,260
475,266
477,258
443,242
421,223
422,203
431,189
427,181
803,180
869,184
407,192
423,201
397,210
400,218
400,224
412,227
424,228
452,225
485,228
508,261
509,352
608,503
627,624
623,624
604,624
600,624
595,624
597,624
591,624
576,624
555,624
553,624
545,624
515,624
486,481
487,343
482,251
453,200
440,185
447,187
450,194
473,200
459,202
437,199
463,194
490,190
501,188
573,187
997,189
652,192
676,197
657,203
669,208
692,212
717,214
731,214
728,212
746,208
754,216
759,265
736,392
834,558
815,624
809,625
789,625
758,624
744,624
720,624
705,625
685,624
659,624
658,624
627,583
626,423
601,284
596,210
590,179
570,178
554,190
519,205
500,213
498,214
478,211
472,204
460,196
467,190
442,187
441,187
457,191
470,197
493,202
581,207
993,210
342,211
532,212
524,211
527,211
541,210
555,209
551,208
551,205
562,204
587,213
580,257
565,361
641,521
642,624
631,624
613,625
611,624
602,624
578,624
541,625
539,624
511,624
491,582
469,407
427,290
398,224
378,205
371,219
352,243
343,263
324,272
309,266
297,247
273,225
248,205
248,188
247,180
221,180
220,185
233,193
248,203
570,213
629,220
203,226
271,229
294,227
290,225
303,224
327,219
351,215
378,210
384,207
399,226
415,298
432,435
508,623
525,624
523,624
510,624
503,625
478,624
498,624
499,624
513,624
503,624
486,624
494,586
496,426
489,305
466,228
471,201
490,198
492,204
496,211
489,211
498,206
504,199
499,189
499,181
489,178
502,179
489,184
480,190
490,197
507,203
499,208
709,211
996,210
448,210
583,209
590,207
578,205
594,204
624,203
631,202
649,200
668,201
681,223
684,296
688,436
783,620
790,625
779,624
775,625
758,624
763,625
726,625
708,624
687,624
678,624
671,625
649,625
625,599
606,441
607,318
599,237
600,203
597,191
580,190
588,194
573,194
590,191
604,186
608,181
616,180
612,181
624,185
623,191
623,197
635,205
624,211
800,216
998,218
519,218
639,215
612,210
609,207
619,206
618,206
604,205
601,203
592,202
579,208
548,254
517,358
563,517
532,624
487,624
437,624
426,624
408,624
391,625
360,623
339,624
316,624
290,606
283,449
250,313
235,244
228,221
229,227
209,249
176,266
165,272
177,264
174,247
187,224
190,204
210,188
211,179
192,176
206,179
218,186
234,195
583,205
619,216
248,222
298,223
318,225
319,225
335,223
360,220
388,217
402,214
408,213
405,234
406,308
428,448
504,623
502,625
481,624
466,624
463,624
459,624
464,625
472,624
464,624
453,624
443,623
439,624
450,482
451,348
448,263
443,219
450,209
437,212
434,217
429,216
442,211
444,203
455,195
460,188
480,184
515,183
536,184
560,187
637,191
997,195
546,198
611,200
597,202
603,204
621,206
624,208
637,208
668,207
692,205
689,212
696,256
691,364
787,533
773,625
734,624
728,625
727,625
726,625
710,625
692,624
696,624
690,625
667,625
656,624
650,578
646,419
626,301
610,228
594,201
594,197
584,202
575,208
560,208
544,204
548,198
557,191
544,184
553,180
808,180
986,185
419,192
518,198
501,206
494,212
488,216
476,218
482,218
500,215
516,211
491,215
487,262
483,369
562,527
518,624
491,624
478,625
465,624
447,624
428,624
402,624
383,623
392,624
369,460
339,308
308,220
309,183
282,186
273,212
263,245
261,267
256,274
264,264
259,243
242,216
238,196
240,181
229,173
400,173
754,176
145,183
259,192
277,202
297,211
305,219
333,223
356,224
403,222
431,219
461,231
466,290
469,416
572,609
545,624
525,624
519,624
529,624
538,625
529,624
517,624
503,624
508,624
495,624
495,555
467,396
464,280
444,210
432,189
415,194
402,207
401,219
391,223
389,218
383,209
420,198
440,187
452,181
465,178
967,181
788,185
528,190
524,194
557,199
570,205
598,209
611,211
635,208
657,205
678,207
695,244
687,342
808,505
857,625
867,625
859,625
857,624
856,625
864,625
845,625
805,625
783,624
767,624
729,625
699,485
652,338
643,241
624,193
603,178
563,183
548,194
554,200
530,200
504,197
490,190
493,185
485,180
483,177
491,178
828,182
889,188
429,195
492,202
489,209
494,213
482,216
467,217
450,214
467,211
477,208
477,223
456,282
448,422
521,593
500,624
478,625
470,624
460,625
431,624
393,624
378,624
363,623
345,589
343,422
311,286
296,203
290,171
286,181
273,209
264,237
261,256
268,257
266,247
266,227
284,204
280,184
280,173
272,169
282,172
293,181
340,190
840,199
186,207
324,215
321,221
331,224
344,226
374,226
404,224
428,217
449,212
473,216
475,261
479,388
579,566
553,624
548,624
560,625
548,624
544,625
535,624
538,624
522,624
485,624
491,624
499,624
512,518
511,354
508,256
506,204
503,187
513,188
500,195
505,200
528,201
547,196
560,188
564,182
561,178
590,179
599,180
599,184
635,190
996,196
797,201
626,205
625,210
629,212
642,214
651,214
656,213
667,210
690,206
713,209
722,244
716,356
820,526
820,625
840,625
812,625
798,625
795,625
769,625
747,625
728,625
714,625
687,624
663,624
638,507
615,343
606,247
598,199
583,186
564,191
551,199
510,201
484,198
455,194
455,186
436,181
431,179
428,179
432,183
763,189
730,197
353,205
391,213
379,220
387,224
394,226
401,224
406,219
415,214
421,208
415,218
393,272
383,388
462,570
445,624
424,624
407,625
411,624
385,624
376,624
388,624
370,624
356,578
344,416
317,286
299,208
300,178
285,190
271,218
274,246
265,263
278,263
258,251
239,231
250,209
261,190
254,177
256,174
262,177
264,184
405,195
847,205
165,213
341,218
363,221
354,223
365,225
396,224
430,220
449,215
449,210
471,224
484,293
498,433
601,624
595,624
591,625
604,624
610,624
584,625
580,624
575,624
572,624
577,624
561,624
547,625
551,525
530,372
507,258
497,204
493,183
480,182
456,189
455,196
453,197
464,194
474,189
485,186
488,184
502,184
502,187
504,190
549,195
995,202
698,206
595,209
599,210
602,210
605,209
612,207
616,206
653,202
692,199
706,207
710,256
712,373
825,570
817,625
790,625
768,625
744,625
724,624
706,624
682,625
658,625
655,625
602,624
585,624
569,546
571,385
558,260
533,200
509,178
486,177
488,184
468,190
449,194
460,195
475,193
464,188
470,185
484,183
495,185
505,189
769,195
989,202
420,208
565,212
569,214
542,215
555,215
565,215
565,212
554,207
548,203
564,211
564,264
558,396
628,568
606,624
575,625
549,624
520,624
490,625
484,625
467,624
434,624
389,623
386,452
379,312
344,222
330,182
295,187
282,211
275,239
275,257
262,261
268,250
268,231
249,212
225,194
232,182
250,178
261,180
262,184
362,194
838,204
126,211
299,218
287,224
297,226
320,226
339,224
365,220
404,214
424,208
432,218
448,273
450,397
554,591
542,624
539,624
531,624
534,625
528,625
528,625
514,624
490,624
478,624
479,624
455,556
435,393
419,274
414,204
414,186
404,193
382,208
388,220
398,222
389,216
397,205
407,195
427,186
436,182
451,182
460,185
478,191
510,198
506,205
945,211
958,215
519,217
539,216
562,215
566,214
571,213
587,212
595,208
625,202
649,204
652,245
652,352
728,523
727,624
729,625
725,625
701,624
704,624
693,625
692,625
679,625
678,624
661,624
647,625
640,623
626,447
601,310
608,225
614,185
597,174
593,178
588,186
598,189
614,189
623,185
627,181
640,178
645,176
610,178
607,183
607,189
607,194
955,199
983,204
584,208
630,211
627,212
608,212
594,211
600,208
592,205
597,202
574,201
583,222
577,294
552,433
598,612
566,625
535,624
511,625
481,625
478,624
446,624
436,625
414,624
368,624
355,505
337,352
317,247
297,196
268,189
255,209
248,233
250,250
243,254
229,244
218,227
202,207
205,189
197,175
210,168
214,170
210,178
221,186
481,198
617,209
200,216
261,219
288,221
310,220
317,219
335,215
360,212
389,206
421,204
443,224
449,298
496,440
584,625
579,624
568,625
558,624
571,624
566,625
561,625
551,624
540,624
533,624
511,624
503,559
508,400
522,284
550,215
541,193
533,193
540,203
546,210
544,213
531,208
528,198
537,188
521,179
519,177
528,180
501,185
523,193
534,201
519,206
989,210
695,214
492,213
461,213
480,212
493,210
519,209
546,206
562,203
601,198
610,203
626,243
631,360
717,533
738,625
747,625
738,625
724,625
704,624
678,624
649,625
626,625
630,624
628,624
616,624
613,599
607,425
620,307
611,238
599,207
571,199
537,201
542,204
527,203
509,201
500,195
507,190
492,187
496,185
489,189
523,197
557,203
992,209
591,213
538,215
547,217
527,218
518,218
527,217
524,213
538,209
552,205
541,205
538,230
531,320
536,463
548,624
523,624
507,624
498,625
472,624
454,624
446,624
441,624
415,624
379,573
361,415
346,291
303,215
287,194
275,206
274,233
271,259
244,271
235,267
246,252
254,232
246,208
232,191
236,180
250,176
258,179
247,187
254,197
634,208
551,215
283,221
281,223
294,223
322,223
345,222
353,220
379,216
411,212
429,212
429,242
431,331
500,483
542,624
533,624
509,624
510,625
527,624
547,624
539,624
519,625
523,625
519,624
512,624
498,514
490,367
483,267
480,214
465,199
456,205
453,215
470,220
468,220
450,211
453,201
465,191
454,185
462,182
468,184
481,189
493,195
500,203
492,209
551,215
995,216
566,216
566,214
551,212
562,211
575,209
594,207
609,206
647,205
668,203
676,213
683,263
682,396
800,576
783,624
756,625
735,625
730,625
728,625
720,624
716,624
706,625
683,625
661,624
641,624
622,599
627,427
615,310
602,240
587,207
585,198
564,199
532,199
514,199
500,197
512,194
503,192
496,190
494,189
502,192
498,198
495,204
496,211
931,216
690,218
473,220
480,221
465,220
456,219
454,217
455,214
451,210
456,206
476,204
476,226
481,300
507,436
570,607
553,624
507,624
494,624
485,624
472,624
448,624
429,624
412,624
392,600
367,440
340,298
318,221
319,194
317,203
292,229
274,256
280,268
279,266
264,252
248,229
253,209
253,193
254,183
255,179
256,182
267,191
281,200
280,208
292,216
760,221
453,224
347,224
340,223
342,220
351,217
374,213
391,210
384,207
428,203
467,207
476,242
470,337
571,513
574,624
557,624
536,624
525,624
525,624
530,625
522,625
512,624
501,624
513,624
497,625
485,584
472,423
479,291
464,223
449,196
442,192
443,202
456,210
452,214
455,210
438,203
437,196
412,190
392,188
388,188
381,191
391,196
363,201
370,207
412,213
920,216
345,217
398,216
377,214
391,212
395,209
391,205
422,200
454,196
497,194
520,203
534,248
549,356
679,524
695,624
676,625
685,625
691,624
698,625
681,625
680,624
662,624
653,624
645,624
612,625
614,565
626,410
622,294
607,221
593,193
577,188
579,193
568,199
550,200
554,197
563,192
566,187
574,182
563,180
598,180
616,183
640,189
650,198
743,206
998,212
762,214
707,214
705,214
718,212
711,209
703,205
705,202
701,200
703,198
689,201
676,231
626,330
650,480
679,624
644,625
599,625
556,624
536,624
513,624
481,624
469,624
428,624
384,583
372,424
341,299
319,219
307,196
301,206
278,231
273,256
284,265
277,261
264,245
246,224
241,202
245,187
244,178
241,174
242,178
263,185
267,195
708,203
351,210
285,217
281,220
289,221
306,220
342,218
365,216
378,212
382,207
403,209
424,237
428,334
529,487
555,624
539,624
549,624
539,625
536,624
541,624
546,624
531,624
520,625
503,624
513,624
506,487
469,347
453,254
460,208
461,197
446,207
439,217
437,221
449,218
450,210
443,197
449,187
464,182
469,179
454,180
443,185
438,191
438,198
750,204
979,210
448,213
541,215
537,214
550,212
566,210
608,207
636,203
666,198
697,197
714,219
723,296
743,439
823,621
792,625
774,625
754,624
748,624
743,625
731,624
705,625
673,624
642,624
623,624
635,586
623,426
606,304
590,231
589,197
575,193
569,200
551,207
542,209
539,205
536,196
535,187
528,181
538,178
556,180
562,185
570,193
991,201
571,208
553,214
543,217
530,219
502,221
488,219
491,216
492,212
491,206
502,204
502,225
476,296
452,428
549,611
499,624
471,624
458,624
450,624
428,624
397,624
372,624
366,624
345,554
330,383
298,267
276,202
270,184
260,202
239,229
227,254
223,268
234,266
225,249
219,229
232,208
250,191
246,180
236,177
253,180
277,188
582,199
753,207
250,214
295,218
309,222
311,225
314,226
342,225
371,222
407,216
437,215
445,238
465,316
520,457
575,624
552,624
545,625
550,625
554,625
547,624
549,624
550,624
551,625
542,624
541,624
535,570
534,416
539,303
519,235
511,204
505,203
512,211
493,217
490,217
488,211
492,201
488,190
492,181
505,177
530,178
559,182
593,188
638,193
996,200
642,206
635,209
614,211
623,213
635,212
643,212
637,210
631,207
642,204
641,211
662,256
649,366
788,536
783,624
770,625
740,625
746,624
737,625
721,625
713,625
697,624
680,624
672,624
638,625
615,495
603,352
579,256
570,204
552,192
530,197
512,205
501,209
488,208
473,202
456,197
447,191
438,187
412,187
568,190
973,195
240,203
388,211
387,218
385,224
404,227
393,228
378,225
378,219
402,212
419,212
409,251
395,349
481,501
456,624
453,624
422,624
404,625
400,624
397,624
349,624
343,623
343,603
342,445
322,311
286,217
286,184
285,188
275,214
282,246
266,265
271,269
263,260
250,241
245,217
260,199
278,185
303,178
299,178
319,184
338,192
343,201
817,210
443,217
415,223
421,226
415,227
423,225
442,223
484,219
501,214
513,210
522,214
542,255
549,361
671,529
652,624
635,625
598,624
584,625
566,625
544,624
556,624
544,625
533,624
497,624
506,624
516,619
506,457
492,330
509,250
520,210
514,199
509,201
517,205
518,204
512,199
526,195
546,189
567,186
570,185
583,188
575,194
577,200
859,206
997,212
544,215
628,217
632,217
635,217
632,218
641,216
655,215
684,211
674,209
665,231
671,305
717,447
806,624
772,625
742,625
736,624
724,625
725,625
694,625
678,625
672,624
666,624
643,624
623,583
629,424
624,306
606,231
579,204
563,202
570,207
555,214
533,213
499,208
482,202
479,196
449,192
430,194
435,198
438,205
429,212
486,220
974,225
238,229
412,229
367,228
356,227
343,223
336,218
340,215
344,210
359,206
367,211
356,250
344,349
434,520
448,624
423,625
417,624
388,625
371,624
366,624
359,624
339,624
315,624
294,519
280,369
257,263
255,207
266,196
270,213
277,237
260,256
265,262
272,254
287,238
270,219
281,200
290,187
312,181
317,182
324,188
348,197
358,206
348,213
687,221
866,226
344,228
421,228
435,226
449,223
462,221
487,217
493,214
515,209
543,210
573,238
578,337
683,496
667,625
643,624
622,624
574,625
577,625
574,625
580,624
576,624
559,624
529,625
535,624
526,624
532,501
532,355
534,258
541,204
553,182
553,182
541,184
543,186
550,187
535,186
551,185
575,183
581,183
571,184
569,187
580,192
597,199
679,207
998,212
568,214
650,215
645,215
642,215
623,213
635,211
660,208
672,206
685,204
708,213
722,262
706,375
833,546
808,625
790,625
784,625
765,624
748,625
741,625
726,625
683,625
655,624
627,624
606,575
586,414
539,291
484,221
444,196
424,201
381,214
356,225
335,229
322,222
303,212
286,200
270,192
279,186
265,185
244,187
243,192
246,200
253,209
505,216
727,220
178,220
268,220
282,219
279,219
299,218
318,217
340,214
339,210
348,207
367,220
365,280
355,421
457,597
434,624
422,625
430,625
421,624
420,624
413,624
419,624
414,624
413,624
399,610
383,449
381,310
363,236
359,204
366,204
370,218
378,233
380,240
379,237
381,228
384,215
391,202
405,192
405,187
417,186
415,191
404,200
423,209
462,215
480,219
506,222
994,222
542,219
522,215
487,211
496,208
528,206
540,206
566,207
581,208
607,211
648,223
680,272
671,387
809,580
803,625
782,625
784,625
777,625
743,624
748,625
737,625
708,625
694,624
692,624
688,624
692,625
657,516
638,357
629,262
615,209
600,189
585,185
570,188
547,191
530,192
540,192
535,191
534,191
539,193
532,196
516,202
505,209
498,214
506,219
528,222
991,221
529,218
527,214
518,210
516,208
515,207
517,208
516,209
527,210
545,209
547,214
546,245
525,329
554,474
578,624
553,625
521,625
491,625
483,624
472,625
445,624
418,625
404,624
402,624
373,489
335,347
313,252
300,207
284,201
263,220
267,241
277,254
277,254
264,241
256,222
262,201
277,185
285,177
283,177
288,182
303,191
316,199
321,209
317,216
709,221
758,222
336,221
358,220
372,219
395,217
421,215
430,213
450,209
471,205
512,205
528,231
532,323
553,475
621,624
598,624
576,625
557,625
569,625
558,624
548,624
531,625
536,624
530,624
520,624
508,624
490,451
502,321
480,240
480,201
467,194
459,200
449,209
446,213
457,211
471,205
490,197
523,190
538,185
544,185
569,187
588,192
615,196
630,200
996,205
940,207
609,209
621,210
648,211
664,211
676,210
676,208
680,205
684,201
697,205
697,239
691,331
752,485
785,625
762,625
731,624
717,625
721,625
719,625
704,624
687,624
663,624
656,624
640,624
606,518
582,369
573,266
556,208
504,196
473,202
451,213
442,219
414,218
381,212
384,206
357,199
328,194
315,193
298,194
306,198
424,205
860,213
128,219
292,223
296,227
294,228
282,227
289,224
307,220
323,215
336,210
334,214
340,254
341,352
425,522
423,624
423,624
412,624
405,624
405,624
405,624
421,624
428,624
414,624
391,494
391,351
385,250
368,198
364,187
344,204
357,228
359,247
345,255
341,249
339,235
346,217
350,201
356,189
373,182
388,183
401,189
406,196
408,205
418,215
440,222
871,226
855,227
438,225
451,223
445,222
451,220
465,218
482,216
525,214
539,213
566,217
577,256
595,354
716,516
733,625
713,624
699,625
696,625
684,624
681,624
687,625
680,625
679,625
648,624
637,624
627,624
616,487
602,343
582,247
580,197
584,180
579,183
581,190
587,195
588,197
579,193
568,189
584,187
585,187
570,190
566,197
556,203
576,209
670,216
997,219
433,220
573,220
546,220
539,219
559,219
578,217
598,213
606,210
598,207
611,215
609,261
627,369
753,551
706,624
685,624
653,625
645,625
605,624
582,624
560,624
527,624
485,625
458,624
463,490
422,349
408,254
388,205
373,199
366,213
359,229
328,238
306,237
298,225
292,211
293,198
287,189
284,186
283,190
288,195
281,202
280,212
705,220
527,226
287,229
298,229
286,227
293,224
310,221
343,219
375,215
407,210
438,210
442,235
448,313
468,470
557,624
551,625
529,625
534,624
536,625
530,625
520,624
512,624
506,624
499,624
479,624
468,453
451,314
433,219
419,185
405,185
400,200
404,218
396,226
404,225
396,217
417,207
418,196
430,190
433,188
451,190
457,194
461,201
458,207
467,214
478,218
849,219
985,220
504,220
553,218
551,216
576,213
595,211
628,209
651,207
682,203
685,205
699,237
703,329
778,488
847,625
822,625
790,625
792,624
791,624
751,625
726,625
713,624
704,624
685,624
642,625
615,624
595,503
574,350
552,240
518,190
505,174
476,176
465,182
429,190
434,192
450,191
466,189
489,188
480,189
471,193
495,198
506,204
518,210
613,216
996,219
427,220
571,220
565,218
569,216
583,213
570,211
580,208
580,204
585,201
573,206
570,243
552,351
630,507
615,625
580,624
551,625
528,624
505,624
498,624
485,624
456,624
435,624
411,587
392,425
357,296
330,213
305,187
293,194
280,216
268,240
250,249
246,245
248,232
248,215
267,197
265,185
267,180
261,181
273,185
292,193
314,203
825,212
319,218
345,224
338,226
346,226
353,224
384,222
415,218
445,212
471,206
484,211
504,256
487,362
615,527
593,624
580,624
576,624
579,625
554,624
550,625
557,624
532,624
517,624
507,625
501,624
495,545
477,387
468,272
465,208
461,186
440,189
434,199
427,205
424,206
422,201
411,194
409,189
410,185
440,186
441,191
450,197
465,204
482,211
494,216
539,217
994,217
476,215
536,212
533,209
523,206
535,203
573,203
586,203
617,202
633,202
654,214
674,267
678,402
809,583
809,625
795,625
779,624
746,625
723,625
723,625
700,625
696,624
666,624
655,625
635,624
608,623
594,435
576,305
568,226
561,188
560,180
566,185
562,191
551,194
550,194
538,190
536,187
532,184
526,184
515,186
528,193
528,200
535,207
899,212
842,216
488,219
504,221
489,221
479,220
472,216
483,213
473,209
461,206
465,205
470,226
461,299
453,432
526,603
501,624
469,624
435,624
416,624
393,624
368,624
351,624
338,624
329,623
318,479
298,327
289,238
273,199
270,197
273,215
262,239
249,250
249,249
266,238
276,217
274,198
272,183
298,175
306,175
315,182
321,191
324,199
344,208
416,216
964,221
213,222
395,221
401,220
406,217
410,215
434,214
474,212
491,210
515,208
522,221
540,280
549,407
680,605
644,624
619,625
606,624
607,625
580,624
580,624
577,624
574,625
541,625
524,624
514,624
500,586
486,423
466,286
463,214
467,181
479,174
478,179
478,184
490,189
504,188
511,185
527,181
544,179
556,179
574,183
592,190
581,199
623,205
664,209
997,211
948,210
630,208
640,207
643,205
624,204
630,204
639,203
651,202
672,202
678,208
698,252
701,357
809,521
790,625
754,624
722,625
699,625
690,625
663,625
674,624
661,624
626,625
592,624
576,624
573,504
560,356
530,256
504,205
493,192
488,199
471,210
459,216
457,214
445,208
418,200
395,193
379,189
388,190
371,196
343,203
349,211
353,218
359,225
697,228
737,229
314,227
364,223
367,219
354,215
351,212
373,210
385,208
401,205
404,206
388,224
399,290
384,434
478,605
466,624
449,624
427,624
406,624
391,624
389,624
375,624
362,624
338,624
319,548
330,396
340,286
315,220
316,205
310,215
307,232
292,246
284,252
289,245
294,230
307,214
308,199
312,192
320,192
334,195
349,201
359,211
378,217
392,222
823,223
800,224
408,223
430,221
441,220
450,219
455,218
487,217
506,215
525,211
548,215
571,251
587,349
693,511
707,625
681,625
667,625
656,624
649,625
651,625
653,625
650,624
645,624
625,624
627,625
622,624
607,515
591,370
565,270
554,212
556,192
540,189
518,194
510,198
500,200
500,200
497,197
490,195
492,195
484,197
499,200
604,204
996,209
389,213
566,216
542,219
546,220
537,219
559,216
561,213
551,208
578,205
600,214
600,262
586,372
692,536
702,625
669,624
641,625
615,625
623,625
603,624
577,624
551,624
520,624
511,625
505,491
476,344
459,245
438,195
423,185
394,199
383,218
377,231
364,233
340,224
328,212
320,201
316,191
324,186
290,185
280,190
600,197
754,205
259,213
309,220
313,225
327,227
339,227
350,224
367,220
401,213
444,209
462,222
458,297
480,433
610,606
632,624
633,625
644,625
655,625
657,624
660,624
657,625
667,625
672,624
679,564
684,403
692,270
713,202
702,177
696,183
711,203
725,220
746,229
762,228
774,220
792,207
841,196
861,188
886,185
911,187
918,193
923,201
947,209
1000,215
998,217
925,217
903,217
882,216
873,214
881,212
887,209
887,205
894,203
901,214
914,269
900,390
991,566
992,625
987,625
948,625
920,625
899,625
884,625
858,625
814,625
777,624
745,625
717,625
678,542
639,383
606,267
588,202
527,175
486,175
448,184
425,194
421,199
396,199
372,196
374,192
355,189
353,189
412,191
914,194
200,199
372,205
369,210
359,216
386,218
395,220
417,218
439,213
481,206
511,206
529,240
521,346
583,501
583,624
568,624
543,625
497,624
479,625
455,625
447,625
418,624
394,624
378,584
354,422
319,288
290,201
287,175
274,182
268,207
239,233
240,242
242,239
257,226
237,209
225,191
216,180
226,175
224,176
551,182
504,192
227,203
270,211
274,218
267,222
294,223
324,221
350,217
384,213
407,213
437,238
440,321
454,466
498,624
495,624
467,625
461,624
465,624
481,625
487,625
487,624
469,624
454,624
456,582
449,414
421,282
398,200
389,166
400,169
396,185
386,202
380,212
373,212
348,205
338,194
341,185
375,179
406,177
434,179
448,185
482,191
498,198
992,203
661,207
522,211
525,212
531,212
545,210
568,208
607,206
639,203
660,198
668,208
691,261
699,384
816,586
802,625
783,625
771,625
769,625
749,625
734,624
716,624
710,625
707,625
674,624
659,624
680,625
690,456
675,301
624,214
596,172
583,159
552,163
525,171
534,178
517,183
503,184
504,184
485,183
482,185
485,188
479,194
489,200
634,205
992,208
321,210
499,211
475,211
490,210
502,210
517,210
533,207
535,201
543,197
557,209
566,267
571,407
687,586
673,624
646,625
622,624
627,624
618,625
600,625
598,624
579,624
558,624
543,624
507,450
493,313
472,224
470,192
453,195
440,213
408,231
411,236
390,231
364,217
356,201
355,187
353,179
340,177
331,182
328,190
342,199
340,207
361,214
847,218
344,221
375,222
363,221
356,219
355,216
368,212
377,209
392,205
406,202
404,210
417,259
418,374
499,548
502,625
493,625
469,625
464,625
472,624
483,624
473,625
478,625
476,625
480,624
481,624
460,480
451,335
443,242
449,198
449,188
439,195
434,204
441,207
437,204
416,194
422,185
433,180
460,177
472,180
458,185
473,191
502,198
508,204
614,209
995,212
380,212
536,212
523,208
518,207
533,205
564,204
587,202
601,199
604,199
639,215
644,282
666,422
753,624
753,624
758,625
747,625
731,625
741,625
723,624
728,624
701,625
693,625
669,624
647,624
614,586
587,399
567,274
559,200
540,167
526,160
512,167
511,173
507,177
501,178
503,175
508,174
522,175
519,178
523,183
535,189
564,196
993,202
732,207
565,211
583,212
588,212
587,212
584,210
604,207
614,203
606,198
597,198
584,224
583,320
635,474
639,625
614,624
595,625
569,624
541,625
501,624
472,624
467,625
435,624
397,624
394,494
374,344
353,235
341,191
319,187
316,207
311,233
304,248
284,248
282,237
275,219
281,198
267,183
260,174
265,172
273,175
272,183
540,192
759,200
214,207
314,213
303,216
310,219
330,219
356,216
370,213
386,210
413,208
438,226
448,296
466,449
541,624
535,625
528,624
531,624
523,624
531,625
528,625
524,624
504,624
491,625
484,625
482,560
476,382
461,268
457,206
466,184
462,187
439,201
436,212
431,215
445,210
446,200
450,189
453,181
462,177
469,178
473,183
495,191
541,200
992,207
730,212
548,214
530,215
534,214
525,213
529,212
550,209
570,206
603,203
602,210
605,263
612,383
681,563
660,625
652,624
635,625
623,625
610,624
602,625
595,625
591,625
581,624
567,624
557,624
559,594
565,427
548,298
531,219
520,183
524,174
518,179
499,186
504,190
514,190
532,187
525,182
522,177
538,176
548,178
545,183
699,191
996,199
389,204
552,209
542,212
526,212
547,211
568,210
586,207
587,202
605,197
643,206
622,267
623,392
707,569
699,625
693,625
674,624
669,625
671,624
666,625
654,624
631,624
625,624
630,624
600,472
567,316
530,230
522,194
503,195
468,216
425,234
403,244
376,241
371,228
352,210
343,193
349,181
364,175
343,176
726,181
568,189
320,199
336,207
320,215
329,220
348,222
361,221
358,218
362,212
378,207
391,223
380,291
369,439
450,612
435,624
415,624
408,624
394,625
399,624
408,624
399,624
399,624
397,593
396,426
376,289
341,205
337,173
342,181
355,208
362,233
356,249
387,250
384,238
386,218
373,197
392,180
397,169
381,167
381,173
393,183
408,194
717,203
951,211
356,216
435,219
451,221
448,221
466,219
470,216
499,211
506,205
530,204
533,230
553,318
624,496
639,625
633,624
616,625
616,625
602,625
586,624
575,624
580,625
555,625
533,625
518,624
517,624
515,551
522,376
518,263
509,200
506,174
501,169
494,175
472,181
482,183
492,182
499,180
495,178
504,177
498,178
516,180
573,187
994,192
481,198
571,203
547,206
555,208
553,209
580,209
607,206
630,201
653,197
676,203
698,247
678,358
757,550
740,625
743,625
737,625
714,625
697,624
681,625
665,625
654,625
619,624
612,624
620,574
582,408
563,282
543,205
547,182
550,186
528,199
514,210
506,212
510,207
498,199
486,190
492,179
495,173
481,171
467,173
464,181
543,191
989,202
257,212
440,219
427,223
421,225
401,223
409,220
427,216
450,209
467,203
474,206
468,243
460,354
514,516
486,624
455,624
442,624
434,624
416,624
390,625
375,624
366,624
380,624
359,547
350,386
328,268
333,202
321,190
303,206
300,229
296,248
300,256
293,249
285,233
286,213
292,194
301,181
302,174
314,175
325,180
335,188
348,198
519,207
960,215
253,221
400,224
403,224
420,223
442,221
470,218
483,214
492,211
519,209
534,228
539,309
564,457
629,624
648,625
643,625
623,625
625,624
625,624
617,625
588,625
582,625
568,624
553,624
551,624
541,589
541,426
555,304
542,228
526,190
513,179
530,180
532,182
515,183
506,183
523,180
536,178
550,179
558,182
566,186
579,192
993,198
964,204
588,209
599,211
600,213
580,214
575,214
586,212
612,208
631,204
637,204
640,238
642,334
699,494
701,624
689,625
690,624
692,624
689,625
678,625
656,625
635,624
615,624
605,624
583,624
577,467
579,325
559,234
541,192
524,185
511,195
498,206
478,211
464,209
441,203
436,194
419,184
410,180
419,180
419,182
417,189
676,197
861,207
325,215
423,222
396,225
393,226
398,226
418,223
434,218
448,210
450,204
471,214
456,277
433,402
495,573
479,625
475,624
461,625
453,625
453,624
450,624
447,624
421,624
415,624
407,481
385,331
362,226
340,184
337,184
343,206
353,233
348,249
347,252
335,242
326,225
314,205
323,190
330,180
339,176
337,178
354,184
381,194
413,204
911,211
412,217
398,221
382,221
397,219
396,218
390,216
422,213
445,209
477,205
478,211
473,264
488,386
586,568
582,624
583,625
597,625
586,624
589,624
585,625
575,625
573,625
581,624
578,624
571,624
560,624
549,452
559,316
549,230
548,185
564,175
552,176
544,180
554,183
573,182
575,179
586,177
578,174
583,174
592,179
600,186
611,192
733,199
998,206
512,210
642,213
613,214
632,214
642,213
641,211
651,207
656,202
664,198
648,209
662,266
653,391
777,569
773,624
757,625
749,625
757,625
736,625
711,624
688,624
633,624
594,625
565,624
518,535
485,377
474,266
461,208
430,191
428,199
415,213
405,222
400,223
389,217
367,204
364,191
371,182
359,179
367,180
503,188
956,197
210,207
396,216
407,222
418,226
396,227
361,224
351,219
360,213
387,206
382,207
368,249
368,352
421,513
416,624
403,624
384,625
404,625
396,624
383,624
360,624
357,624
338,624
327,543
322,377
317,247
318,185
310,169
298,184
287,212
294,233
305,243
308,240
316,225
327,205
343,187
352,176
359,171
360,173
375,180
396,189
408,198
847,208
565,217
412,222
412,224
426,223
428,220
449,215
461,212
486,207
515,203
535,209
566,257
559,375
660,557
653,624
653,625
648,625
655,624
656,625
665,625
655,625
648,624
641,624
641,624
647,624
635,624
630,477
629,330
617,233
594,179
579,163
553,165
560,174
556,180
551,184
553,185
550,185
561,183
581,183
560,185
573,190
607,194
996,198
545,202
594,205
588,208
593,211
610,212
605,211
610,208
640,204
660,201
665,205
670,247
679,357
756,529
754,625
732,624
735,625
728,625
710,625
684,625
634,624
633,624
633,625
608,624
570,574
560,407
547,282
549,213
526,189
511,196
529,212
563,225
544,226
529,218
516,207
509,195
499,187
477,183
436,182
424,185
403,192
371,200
673,208
638,214
325,217
351,218
343,219
339,218
356,217
371,214
359,209
355,203
373,200
389,221
370,297
363,441
426,625
429,625
435,624
441,625
437,624
440,625
434,625
434,625
404,624
387,624
374,536
353,373
333,257
309,196
311,182
303,198
294,222
301,240
303,247
301,239
294,225
308,208
314,192
329,179
338,173
346,174
369,179
389,187
398,198
401,206
412,212
543,215
992,217
324,217
467,214
459,208
459,206
481,203
483,201
491,199
506,198
532,199
546,220
545,297
545,446
637,625
650,625
635,625
614,625
619,624
613,625
619,625
616,625
620,624
622,624
625,624
619,625
618,624
624,532
625,375
615,257
618,196
609,168
615,161
605,162
592,166
590,168
594,170
606,172
601,174
589,177
603,182
634,188
629,195
625,203
643,208
896,209
996,209
517,207
637,204
638,203
634,202
625,203
626,203
628,202
634,199
640,199
651,214
657,288
654,427
726,612
706,625
686,625
662,625
644,624
623,625
594,625
562,625
546,624
520,624
479,624
450,517
448,349
422,250
382,203
353,197
339,212
315,230
295,239
274,235
271,222
278,203
280,186
268,173
243,166
248,166
259,172
311,181
804,191
162,202
321,211
302,218
296,221
310,220
335,219
369,216
397,211
416,205
432,206
451,238
465,347
539,514
544,624
549,625
547,624
538,625
530,625
529,625
526,624
505,624
484,624
473,625
463,601
441,429
417,283
389,206
390,179
391,182
369,201
366,216
382,223
389,219
386,208
377,191
384,179
390,172
402,171
418,173
425,179
440,187
966,196
560,202
469,207
455,210
467,212
480,213
496,213
504,210
530,205
589,200
603,203
625,249
623,361
716,538
731,625
724,625
716,625
728,625
738,625
733,624
720,625
717,625
717,625
686,624
672,624
682,597
697,431
694,303
660,227
640,192
623,185
599,190
586,195
568,198
538,195
544,189
531,181
527,175
530,173
557,175
990,181
812,189
506,200
517,208
537,215
530,220
519,223
523,221
544,217
557,211
558,209
557,226
563,297
566,452
585,624
560,624
534,625
521,624
500,624
458,624
425,624
388,624
377,624
336,624
316,509
295,353
280,247
235,192
205,190
194,211
177,238
190,255
193,256
201,245
213,226
246,205
287,187
295,175
366,170
875,172
183,179
334,192
330,203
311,214
318,222
329,227
313,228
334,225
358,220
364,220
368,259
385,361
490,525
494,625
489,624
486,625
497,625
481,625
449,624
438,624
433,624
445,625
442,624
436,469
424,307
443,218
442,181
437,184
421,204
419,228
413,240
397,240
385,230
394,212
396,194
403,180
422,172
439,170
446,174
660,180
993,188
371,196
522,204
541,209
542,213
554,215
575,216
595,213
620,208
636,206
633,225
619,303
691,474
731,625
732,625
727,625
730,625
731,625
712,624
712,624
720,625
721,625
700,625
690,624
684,624
699,503
696,349
676,245
655,189
639,170
652,172
623,181
607,188
594,189
595,186
596,181
583,178
580,176
614,176
995,182
609,189
600,198
583,204
594,210
585,215
603,217
602,216
617,213
634,208
638,211
630,247
621,349
713,516
742,625
695,625
676,625
664,625
665,625
631,624
601,624
580,625
554,625
536,625
491,497
455,342
428,240
414,191
385,185
352,203
346,224
316,236
290,237
252,224
243,208
249,192
240,179
230,171
230,171
243,176
250,184
327,193
807,204
66,212
268,218
255,222
224,223
217,223
228,222
249,216
285,210
269,204
287,212
303,266
305,393
391,578
393,624
412,625
434,625
446,624
452,624
372,625
358,625
403,625
428,624
458,624
489,509
492,353
497,249
470,198
478,188
480,201
471,217
456,227
462,225
472,216
480,203
473,191
451,180
455,175
440,177
449,182
458,190
479,198
475,205
773,209
991,212
402,214
516,213
507,212
494,210
504,209
524,207
543,205
565,202
578,203
601,229
616,318
682,501
727,624
726,625
732,625
741,625
735,625
725,624
729,624
733,625
720,625
684,625
693,624
685,624
692,541
692,380
666,266
661,203
652,179
626,175
582,178
572,183
562,185
569,183
562,181
561,180
563,178
567,181
567,187
636,192
995,199
441,206
572,211
544,216
527,218
529,219
551,217
551,214
552,209
563,203
579,204
577,237
557,347
595,515
595,625
564,625
550,625
540,624
547,625
536,625
514,625
484,625
460,624
452,624
427,469
386,318
345,215
327,180
327,184
308,208
287,232
278,245
283,244
274,231
275,213
287,192
301,179
266,171
258,171
617,175
374,184
251,193
269,203
281,212
299,220
323,223
353,224
354,221
366,216
385,211
404,232
404,312
433,461
501,625
503,625
511,625
509,625
525,624
532,625
514,625
508,625
492,625
506,624
511,584
499,415
486,283
482,206
490,176
470,183
451,201
448,219
445,224
447,221
436,211
447,199
450,187
462,179
449,178
438,182
438,188
801,196
923,206
438,212
462,215
466,216
468,217
471,217
490,217
519,213
568,208
598,208
604,240
621,338
700,506
733,625
734,625
730,625
739,624
743,625
747,625
724,625
706,625
692,624
681,624
658,625
641,588
624,414
617,281
616,202
619,168
593,167
600,177
592,188
562,193
552,193
542,190
523,186
516,182
525,181
520,184
740,189
992,197
397,203
534,209
534,215
534,218
552,220
556,218
562,214
573,208
570,205
572,215
567,280
554,412
631,593
614,625
591,625
565,624
576,625
573,625
559,625
558,625
549,624
519,624
507,563
485,392
456,255
430,189
408,170
381,185
370,211
364,235
354,243
341,238
331,225
334,206
327,191
324,181
310,178
296,180
303,188
748,196
374,204
287,213
294,219
305,222
325,223
335,223
359,220
390,216
402,211
422,211
448,246
453,345
539,534
527,625
518,625
509,624
518,625
505,625
502,625
496,625
494,624
493,624
485,625
486,624
487,476
487,326
462,223
466,183
461,176
467,186
448,200
439,208
444,208
453,202
451,192
451,182
461,177
474,176
491,177
506,183
511,190
601,198
995,204
446,209
577,212
578,212
598,211
612,209
631,207
640,205
667,203
675,201
697,212
697,280
693,419
793,613
777,625
768,625
763,625
757,625
742,624
726,625
701,625
687,625
670,624
664,624
644,624
631,487
616,335
610,237
573,189
549,174
550,181
525,190
509,196
485,197
480,191
464,185
458,179
445,177
444,178
465,183
944,192
402,202
443,213
447,221
441,228
442,232
444,233
450,230
467,224
478,215
475,211
480,232
476,312
505,477
537,625
520,625
516,625
512,625
494,624
489,625
487,625
479,625
475,624
459,575
433,403
412,270
376,194
344,171
321,186
315,216
294,242
286,254
266,249
259,233
263,212
273,194
279,180
278,175
281,175
285,181
297,189
762,199
355,207
320,215
323,220
341,224
345,225
369,225
398,222
419,217
442,212
462,216
479,258
498,370
577,548
569,625
555,625
564,625
571,624
567,625
565,625
558,625
546,624
537,624
514,625
509,625
508,556
490,388
469,257
477,193
488,170
468,169
470,179
475,186
477,188
485,185
492,180
519,174
525,171
517,173
543,178
548,184
562,191
989,197
993,204
557,209
597,212
602,214
607,215
617,214
635,213
653,209
663,205
665,206
665,238
669,336
740,524
759,625
729,624
731,625
727,625
729,625
704,625
695,624
699,625
702,625
681,625
675,624
656,513
652,350
644,233
623,181
618,169
617,176
603,187
582,196
549,196
533,191
524,185
516,180
490,178
471,177
469,180
624,187
954,197
294,205
417,213
405,219
394,223
382,226
383,223
400,218
415,211
426,203
416,210
407,257
395,368
448,538
421,625
408,625
398,625
390,625
366,624
349,624
347,624
333,624
329,612
322,417
310,272
300,184
290,153
277,161
292,198
303,232
302,254
315,260
304,247
312,226
325,204
342,184
339,171
338,168
341,171
350,179
349,191
375,203
928,214
275,220
392,223
375,223
374,223
387,220
393,218
411,213
433,207
459,202
472,212
502,271
515,404
614,600
633,625
628,625
614,625
611,624
609,625
605,625
575,625
541,624
539,624
537,625
528,625
514,605
527,430
540,285
531,207
522,173
520,165
524,169
538,177
530,181
543,180
557,177
588,173
587,172
601,175
632,179
678,185
996,191
918,198
688,201
693,206
692,212
690,216
676,216
686,213
677,208
678,200
681,204
680,247
672,360
756,541
749,625
704,625
708,625
699,625
698,625
664,625
653,624
632,624
642,625
620,625
590,625
572,502
556,344
533,238
500,183
478,172
482,177
448,186
431,192
395,194
383,191
383,184
364,178
359,175
409,176
893,181
170,189
328,199
318,211
330,220
334,224
328,226
323,222
326,215
329,205
336,202
323,234
307,344
372,513
375,625
367,625
371,625
383,624
386,625
386,625
376,625
381,624
384,624
386,522
381,355
378,234
388,167
374,158
369,180
355,210
349,234
345,245
336,240
327,224
322,204
344,185
342,171
346,165