512,249
517,248
548,244
572,239
560,238
547,261
562,328
551,439
494,564
452,625
448,625
466,625
471,625
462,624
450,545
477,436
483,349
469,280
456,237
463,221
495,229
489,253
477,279
466,298
513,305
506,298
490,281
483,260
496,240
519,222
892,213
552,212
460,216
492,226
508,236
497,244
496,251
520,255
550,255
549,254
548,251
568,251
581,281
569,356
528,469
484,589
470,625
469,625
462,624
457,625
474,625
498,541
485,430
469,341
470,274
493,233
502,221
482,231
479,255
496,281
513,299
494,305
484,297
491,281
515,260
523,240
496,228
498,222
523,221
534,223
626,229
982,236
309,244
511,253
503,259
487,262
501,263
526,261
543,256
534,250
536,243
569,245
586,274
575,352
537,490
511,624
501,625
482,625
462,625
459,625
475,625
483,625
467,624
451,517
473,402
488,309
480,248
459,223
467,223
489,238
497,255
482,267
475,271
494,265
511,253
501,240
487,227
500,218
520,215
515,218
747,222
858,229
440,237
503,242
493,247
482,250
489,251
527,250
527,246
518,241
523,236
560,236
567,264
538,341
518,463
496,608
483,625
460,625
445,625
453,625
484,625
484,625
461,530
454,422
469,328
486,255
468,222
459,220
472,239
494,268
490,289
476,297
473,293
493,278
502,258
494,240
484,227
501,220
519,220
508,223
494,229
712,236
908,242
401,247
495,249
497,248
522,249
540,249
530,247
524,244
546,240
573,236
582,238
556,266
545,343
547,463
520,595
468,625
446,625
458,625
474,625
476,625
450,625
460,530
476,421
478,325
469,251
459,219
484,216
493,234
489,260
469,284
489,296
509,294
509,282
494,263
490,243
515,227
521,218
504,214
497,217
512,222
522,230
524,239
505,248
506,254
716,256
968,256
366,252
477,247
495,242
511,238
513,234
501,231
520,230
546,230
552,230
547,239
536,279
560,381
549,518
503,625
464,625
448,625
470,625
463,625
448,625
451,625
475,625
479,557
461,435
450,333
469,259
488,227
482,224
471,237
478,255
499,270
501,274
483,267
485,253
505,237
515,222
491,215
487,213
500,216
516,223
509,231
498,239
499,246
635,252
943,255
331,254
482,250
491,247
515,242
510,237
504,233
527,230
551,227
566,226
558,228
562,250
570,311
568,419
509,565
469,625
460,625
473,625
476,625
456,625
466,625
485,559
491,453
468,350
468,280
483,239
498,228
495,242
473,267
486,292
507,306
513,307
489,292
486,271
511,248
521,228
512,215
495,209
515,210
618,216
985,226
271,238
491,248
509,255
517,260
509,261
504,259
531,255
556,249
560,242
555,237
576,248
590,296
577,394
520,523
473,625
479,624
480,625
464,625
454,625
473,625
490,556
482,450
465,356
463,279
489,239
498,226
481,236
472,257
486,282
506,297
491,300
476,290
491,273
518,251
514,231
500,217
499,211
557,211
989,216
285,224
483,233
486,240
516,248
513,254
508,258
510,258
540,254
558,247
547,244
546,259
549,318
556,439
503,574
461,625
446,625
456,625
462,625
454,625
452,625
471,597
484,476
470,372
462,289
475,235
498,212
489,216
478,235
477,256
497,271
500,277
492,270
487,256
499,241
518,225
514,214
492,209
793,208
772,211
449,216
479,224
484,230
502,235
525,237
521,238
505,236
529,233
567,228
575,226
560,247
552,312
555,421
516,546
466,625
446,625
463,625
478,624
476,625
454,532
460,433
472,344
472,273
456,226
450,205
476,211
487,233
485,260
462,283
480,294
493,287
493,270
478,246
477,222
512,205
516,193
511,188
541,188
890,193
302,201
506,212
490,223
499,233
525,240
526,243
525,243
525,239
560,233
573,228
571,228
551,249
527,304
518,406
482,512
445,598
438,625
453,625
476,624
461,571
459,498
471,422
485,341
477,283
462,245
458,233
481,242
489,265
480,290
478,310
497,318
525,311
514,293
703,271
482,247
492,229
527,217
511,212
524,216
546,222
559,230
545,239
553,247
575,254
604,260
593,272
566,303
539,364
521,448
502,534
474,602
474,622
492,609
511,564
505,495
475,425
488,354
504,293
504,251
483,229
488,233
506,253
515,279
500,304
488,319
507,320
518,308
521,289
508,265
514,245
742,230
729,221
436,218
495,221
518,227
538,235
531,243
522,250
537,253
563,253
576,252
567,256
567,291
582,366
561,481
505,609
461,625
471,625
485,624
483,625
468,625
463,625
496,624
489,624
481,548
463,425
485,316
500,254
492,226
478,228
482,246
510,265
512,277
489,278
486,268
500,251
519,234
507,220
491,210
498,206
525,206
518,210
497,214
497,218
517,223
525,226
523,227
499,228
508,228
521,225
511,223
499,222
508,219
902,217
424,213
493,212
477,212
501,214
517,217
506,219
505,221
521,224
548,226
550,233
540,266
550,350
557,491
548,625
493,625
467,625
475,625
487,625
471,624
464,625
470,625
491,625
501,625
483,625
479,624
498,486
512,358
508,265
492,224
507,213
528,218
523,230
499,241
504,244
518,240
526,233
515,226
501,222
519,219
532,218
530,219
505,222
522,224
536,225
526,227
505,228
501,229
524,227
589,226
971,224
302,221
491,219
500,218
496,218
487,218
494,217
519,217
532,217
531,218
527,221
556,248
571,315
549,426
505,563
475,625
477,625
470,625
449,625
440,624
464,624
468,625
456,591
444,475
452,360
485,283
486,235
471,216
470,219
496,238
503,258
480,272
467,278
477,273
498,261
489,247
474,233
474,222
495,214
503,211
480,211
490,214
509,219
517,223
501,228
493,232
498,234
655,235
910,236
366,234
480,233
492,230
511,228
495,226
492,225
514,224
536,224
537,223
530,228
538,248
553,300
546,402
491,521
463,624
460,625
473,624
455,625
449,625
459,625
478,578
476,481
455,383
462,311
482,263
495,239
482,235
475,248
494,267
509,284
509,294
480,293
494,285
509,272
517,256
517,241
501,229
506,222
517,218
512,217
500,219
650,223
934,228
358,231
497,234
488,237
522,239
537,240
526,240
513,239
538,236
565,234
565,232
549,241
549,279
551,352
526,453
482,560
455,625
473,625
481,624
473,624
462,602
464,512
488,427
484,351
470,292
461,256
486,240
495,246
478,262
473,283
485,302
513,310
511,307
497,297
497,283
691,265
908,249
356,236
486,228
498,224
527,224
519,226
514,229
527,234
553,238
562,239
551,240
549,248
549,272
550,335
505,423
462,523
460,603
478,625
473,625
455,609
454,544
469,464
476,380
457,314
454,264
468,236
494,231
480,245
470,268
482,293
508,312
525,321
943,319
277,308
501,290
502,272
493,253
490,238
512,228
540,224
548,225
534,228
547,232
562,239
561,256
539,304
501,380
491,476
481,562
469,613
445,620
460,587
472,523
470,446
457,362
452,295
478,246
482,218
473,215
468,233
488,261
503,289
502,310
487,320
683,315
838,303
369,286
490,270
481,255
503,244
521,237
521,234
514,233
536,232
562,234
563,238
544,247
523,281
539,343
520,429
480,517
457,580
467,602
482,580
481,526
462,455
453,381
478,308
484,259
471,230
454,223
468,237
497,261
486,288
477,310
479,322
507,322
818,313
663,297
439,279
490,261
514,247
510,238
507,232
520,229
548,229
559,231
545,235
540,242
545,266
545,328
518,417
482,515
474,595
486,625
477,625
459,589
465,522
483,447
485,367
471,307
466,262
485,240
502,239
484,257
480,281
487,304
504,320
511,323
489,316
496,302
916,285
479,267
498,253
473,241
495,234
523,229
528,230
514,231
524,236
555,239
567,243
550,258
526,300
529,380
537,483
502,578
466,624
476,625
489,625
492,580
470,496
461,418
479,346
491,288
481,251
463,236
478,242
494,262
493,288
474,307
480,317
501,314
516,302
502,285
613,264
875,247
378,235
503,228
489,223
512,223
529,227
533,230
528,234
525,237
551,240
563,247
543,270
513,326
519,426
510,527
484,608
459,624
453,625
483,596
482,526
467,445
459,368
470,298
490,256
488,237
472,238
469,257
503,288
501,314
476,328
474,329
487,317
509,299
584,279
942,260
256,244
494,232
495,227
488,225
494,227
515,232
539,239
533,246
536,250
548,255
560,273
537,321
515,404
498,502
499,588
494,625
475,624
467,605
492,542
506,465
486,382
477,316
488,268
503,242
505,239
482,254
479,279
495,301
508,317
497,321
487,313
503,298
522,278
523,257
532,242
963,233
315,226
520,225
487,225
487,228
514,235
537,244
537,253
524,259
539,260
562,261
558,281
532,344
514,442
507,556
500,625
480,624
459,625
476,625
491,625
483,583
467,478
469,386
490,312
496,263
483,240
471,244
486,262
500,286
488,303
479,310
488,307
508,294
511,277
500,259
484,243
843,231
703,223
463,219
478,218
496,222
517,226
524,232
511,236
513,239
544,241
557,241
543,250
518,288
515,379
529,490
487,598
448,625
452,625
476,625
475,625
452,590
445,498
457,396
476,318
464,263
450,236
464,236
490,255
489,281
478,304
469,318
498,318
508,306
497,288
488,267
500,248
524,232
838,225
612,221
449,222
511,225
524,232
514,239
512,244
533,250
562,254
554,254
546,251
552,256
567,285
557,363
526,471
497,581
494,625
498,625
482,624
468,625
473,573
488,477
482,375
461,298
466,247
486,225
494,229
472,253
470,284
485,310
507,325
499,326
480,315
484,295
510,271
513,250
487,232
494,222
514,218
525,218
615,221
935,229
329,237
509,245
500,250
493,254
499,255
527,254
537,251
533,248
531,245
552,250
567,285
550,370
525,498
504,625
508,625
498,625
480,624
467,625
486,625
500,625
493,624
470,545
485,411
495,319
490,265
472,247
475,255
506,277
509,298
495,308
483,307
489,292
518,274
511,256
496,239
491,228
523,219
517,217
643,218
938,222
323,229
501,235
489,241
483,244
495,247
527,249
529,247
523,244
529,240
550,241
559,274
534,354
510,478
494,612
495,625
476,625
462,624
460,625
476,625
488,625
469,562
454,441
465,336
488,258
473,225
465,222
474,240
495,268
505,293
477,304
477,300
499,287
511,267
490,243
493,226
500,214
512,208
516,209
488,214
494,222
824,231
666,239
466,248
473,252
497,256
522,257
527,256
513,253
530,250
558,248
570,247
558,254
541,289
545,372
540,495
502,621
458,625
463,625
481,625
481,625
468,624
466,596
481,475
488,363
477,275
460,221
477,210
497,226
495,258
476,289
484,313
504,319
508,310
487,291
491,265
509,242
518,225
509,215
496,215
504,217
867,224
673,230
467,237
480,244
509,251
525,255
513,257
511,257
528,254
564,251
564,248
551,258
548,304
558,412
540,548
497,625
461,625
467,625
485,625
477,625
463,625